what,kind,bundleId,bundleVersion,description,time
error,log,,,"Error in JSDT Core during reconcile",1454526710437
error,log,,,"Problems occurred when invoking code from plug-in: ""org.eclipse.wst.jsdt.ui"".",1454526710438
error,log,,,"Error in JSDT Core during AST creation",1454526710439
error,log,,,"Exception occurred during problem detection:\n----------------------------------- SOURCE BEGIN -------------------------------------\n<html>\n\t<head>\n\t\t<script type=""text/javascript"" src=""d3/d3.min.js""></script>\n\t\t<script src=""//code.jquery.com/jquery-1.10.2.js""></script>\n\t\t<script src=""//code.jquery.com/ui/1.11.2/jquery-ui.js""></script>\n\t</head>\n\t\n\t<body>\n\t\t<div class = ""top-select-variables"">\n\t\t\t\n\t\t</div>\n\t\t\n\t\t<svg id = canvas></svg>\n\t\n\t</body>\n\n</html>\n----------------------------------- SOURCE END -------------------------------------",1454526713457
error,log,,,"Error in JSDT Core during reconcile",1454526713457
error,log,,,"Problems occurred when invoking code from plug-in: ""org.eclipse.wst.jsdt.ui"".",1454526713616
error,log,,,"Error in JSDT Core during AST creation",1454526713617
error,log,,,"Exception occurred during problem detection:\n----------------------------------- SOURCE BEGIN -------------------------------------\n<html>\n\t<head>\n\t\t<script type=""text/javascript"" src=""d3/d3.min.js""></script>\n\t\t<script src=""//code.jquery.com/jquery-1.10.2.js""></script>\n\t\t<script src=""//code.jquery.com/ui/1.11.2/jquery-ui.js""></script>\n\t</head>\n\t\n\t<body>\n\t\t<div class = ""top-select-variables"">\n\t\t\t\n\t\t</div>\n\t\t\n\t\t<svg id = canvas></svg>\n\t\n\t</body>\n\n</html>\n----------------------------------- SOURCE END -------------------------------------",1454526716969
error,log,,,"Error in JSDT Core during reconcile",1454526716970
error,log,,,"Problems occurred when invoking code from plug-in: ""org.eclipse.wst.jsdt.ui"".",1454526717899
error,log,,,"Error in JSDT Core during AST creation",1454526717900
error,log,,,"Exception occurred during problem detection:\n----------------------------------- SOURCE BEGIN -------------------------------------\n<html>\n\t<head>\n\t\t<script type=""text/javascript"" src=""d3/d3.min.js""></script>\n\t\t<script src=""//code.jquery.com/jquery-1.10.2.js""></script>\n\t\t<script src=""//code.jquery.com/ui/1.11.2/jquery-ui.js""></script>\n\t</head>\n\t\n\t<body>\n\t\t<div class = ""top-select-variables"">\n\t\t\t\n\t\t</div>\n\t\t\n\t\t<svg id = canvas></svg>\n\t\n\t</body>\n\n</html>\n----------------------------------- SOURCE END -------------------------------------",1454526717974
error,log,,,"Error in JSDT Core during reconcile",1454526717975
error,log,,,"Exception occurred during problem detection:\n----------------------------------- SOURCE BEGIN -------------------------------------\n<html>\n\t<head>\n\t\t<script type=""text/javascript"" src=""d3/d3.min.js""></script>\n\t\t<script src=""//code.jquery.com/jquery-1.10.2.js""></script>\n\t\t<script src=""//code.jquery.com/ui/1.11.2/jquery-ui.js""></script>\n\t</head>\n\t\n\t<body>\n\t\t<div class = ""top-select-variables"">\n\t\t\t\n\t\t</div>\n\t\t\n\t\t<svg id = canvas></svg>\n\t\n\t</body>\n\n</html>\n----------------------------------- SOURCE END -------------------------------------",1454526723986
error,log,,,"Error in JSDT Core during reconcile",1454526723987
error,log,,,"Problems occurred when invoking code from plug-in: ""org.eclipse.wst.jsdt.ui"".",1454526723988
error,log,,,"Error in JSDT Core during AST creation",1454526723988
error,log,,,"Exception occurred during problem detection:\n----------------------------------- SOURCE BEGIN -------------------------------------\n<html>\n\t<head>\n\t\t<script type=""text/javascript"" src=""d3/d3.min.js""></script>\n\t\t<script src=""//code.jquery.com/jquery-1.10.2.js""></script>\n\t\t<script src=""//code.jquery.com/ui/1.11.2/jquery-ui.js""></script>\n\t</head>\n\t\n\t<body>\n\t\t<div class = ""top-select-variables"">\n\t\t\t\n\t\t</div>\n\t\t\n\t\t<svg id = canvas></svg>\n\t\n\t</body>\n\n</html>\n----------------------------------- SOURCE END -------------------------------------",1454526727497
error,log,,,"Error in JSDT Core during reconcile",1454526727497
error,log,,,"Problems occurred when invoking code from plug-in: ""org.eclipse.wst.jsdt.ui"".",1454526728097
error,log,,,"Error in JSDT Core during AST creation",1454526728097
error,log,,,"Exception occurred during problem detection:\n----------------------------------- SOURCE BEGIN -------------------------------------\n<html>\n\t<head>\n\t\t<script type=""text/javascript"" src=""d3/d3.min.js""></script>\n\t\t<script src=""//code.jquery.com/jquery-1.10.2.js""></script>\n\t\t<script src=""//code.jquery.com/ui/1.11.2/jquery-ui.js""></script>\n\t</head>\n\t\n\t<body>\n\t\t<div class = ""top-select-variables"">\n\t\t\t\n\t\t</div>\n\t\t\n\t\t<svg id = canvas></svg>\n\t\n\t</body>\n\n</html>\n----------------------------------- SOURCE END -------------------------------------",1454526729503
error,log,,,"Error in JSDT Core during reconcile",1454526729504
error,log,,,"Problems occurred when invoking code from plug-in: ""org.eclipse.wst.jsdt.ui"".",1454526729505
error,log,,,"Error in JSDT Core during AST creation",1454526729505
error,log,,,"Exception occurred during problem detection:\n----------------------------------- SOURCE BEGIN -------------------------------------\n<html>\n\t<head>\n\t\t<script type=""text/javascript"" src=""d3/d3.min.js""></script>\n\t\t<script src=""//code.jquery.com/jquery-1.10.2.js""></script>\n\t\t<script src=""//code.jquery.com/ui/1.11.2/jquery-ui.js""></script>\n\t</head>\n\t\n\t<body>\n\t\t<div class = ""top-select-variables"">\n\t\t\t\n\t\t</div>\n\t\t\n\t\t<svg id = canvas></svg>\n\t\n\t</body>\n\n</html>\n----------------------------------- SOURCE END -------------------------------------",1454526731010
error,log,,,"Error in JSDT Core during reconcile",1454526731016
error,log,,,"Exception occurred during problem detection:\n----------------------------------- SOURCE BEGIN -------------------------------------\n<html>\n\t<head>\n\t\t<script type=""text/javascript"" src=""d3/d3.min.js""></script>\n\t\t<script src=""//code.jquery.com/jquery-1.10.2.js""></script>\n\t\t<script src=""//code.jquery.com/ui/1.11.2/jquery-ui.js""></script>\n\t</head>\n\t\n\t<body>\n\t\t<div class = ""top-select-variables"">\n\t\t\t\n\t\t</div>\n\t\t\n\t\t<svg id = canvas></svg>\n\t\n\t</body>\n\n</html>\n----------------------------------- SOURCE END -------------------------------------",1454526732020
error,log,,,"Error in JSDT Core during reconcile",1454526732021
error,log,,,"Problems occurred when invoking code from plug-in: ""org.eclipse.wst.jsdt.ui"".",1454526732064
error,log,,,"Error in JSDT Core during AST creation",1454526732064
error,log,,,"Exception occurred during problem detection:\n----------------------------------- SOURCE BEGIN -------------------------------------\n<html>\n\t<head>\n\t\t<script type=""text/javascript"" src=""d3/d3.min.js""></script>\n\t\t<script src=""//code.jquery.com/jquery-1.10.2.js""></script>\n\t\t<script src=""//code.jquery.com/ui/1.11.2/jquery-ui.js""></script>\n\t</head>\n\t\n\t<body>\n\t\t<div class = ""top-select-variables"">\n\t\t\t\n\t\t</div>\n\t\t\n\t\t<svg id = canvas></svg>\n\t\n\t</body>\n\n</html>\n----------------------------------- SOURCE END -------------------------------------",1454526738033
error,log,,,"Error in JSDT Core during reconcile",1454526738033
error,log,,,"Problems occurred when invoking code from plug-in: ""org.eclipse.wst.jsdt.ui"".",1454526738034
error,log,,,"Error in JSDT Core during AST creation",1454526738034
error,log,,,"Exception occurred during problem detection:\n----------------------------------- SOURCE BEGIN -------------------------------------\n<html>\n\t<head>\n\t\t<script type=""text/javascript"" src=""d3/d3.min.js""></script>\n\t\t<script src=""//code.jquery.com/jquery-1.10.2.js""></script>\n\t\t<script src=""//code.jquery.com/ui/1.11.2/jquery-ui.js""></script>\n\t</head>\n\t\n\t<body>\n\t\t<div class = ""top-select-variables"">\n\t\t\t\n\t\t</div>\n\t\t\n\t\t<svg id = canvas></svg>\n\t\n\t</body>\n\n</html>\n----------------------------------- SOURCE END -------------------------------------",1454526740540
error,log,,,"Error in JSDT Core during reconcile",1454526740541
error,log,,,"Problems occurred when invoking code from plug-in: ""org.eclipse.wst.jsdt.ui"".",1454526740796
error,log,,,"Error in JSDT Core during AST creation",1454526740797
error,log,,,"Exception occurred during problem detection:\n----------------------------------- SOURCE BEGIN -------------------------------------\n<html>\n\t<head>\n\t\t<script type=""text/javascript"" src=""d3/d3.min.js""></script>\n\t\t<script src=""//code.jquery.com/jquery-1.10.2.js""></script>\n\t\t<script src=""//code.jquery.com/ui/1.11.2/jquery-ui.js""></script>\n\t</head>\n\t\n\t<body>\n\t\t<div class = ""top-select-variables"">\n\t\t\t\n\t\t</div>\n\t\t\n\t\t<svg id = canvas></svg>\n\t\n\t</body>\n\n</html>\n----------------------------------- SOURCE END -------------------------------------",1454526744552
error,log,,,"Error in JSDT Core during reconcile",1454526744566
error,log,,,"Problems occurred when invoking code from plug-in: ""org.eclipse.wst.jsdt.ui"".",1454526744593
error,log,,,"Error in JSDT Core during AST creation",1454526744594
error,log,,,"Exception occurred during problem detection:\n----------------------------------- SOURCE BEGIN -------------------------------------\n<html>\n\t<head>\n\t\t<script type=""text/javascript"" src=""d3/d3.min.js""></script>\n\t\t<script src=""//code.jquery.com/jquery-1.10.2.js""></script>\n\t\t<script src=""//code.jquery.com/ui/1.11.2/jquery-ui.js""></script>\n\t</head>\n\t\n\t<body>\n\t\t<div class = ""top-select-variables"">\n\t\t\t\n\t\t</div>\n\t\t\n\t\t<svg id = canvas></svg>\n\t\n\t</body>\n\n</html>\n----------------------------------- SOURCE END -------------------------------------",1454526745570
error,log,,,"Error in JSDT Core during reconcile",1454526745570
error,log,,,"Problems occurred when invoking code from plug-in: ""org.eclipse.wst.jsdt.ui"".",1454526745881
error,log,,,"Error in JSDT Core during AST creation",1454526745882
error,log,,,"Exception occurred during problem detection:\n----------------------------------- SOURCE BEGIN -------------------------------------\n<html>\n\t<head>\n\t\t<script type=""text/javascript"" src=""d3/d3.min.js""></script>\n\t\t<script src=""//code.jquery.com/jquery-1.10.2.js""></script>\n\t\t<script src=""//code.jquery.com/ui/1.11.2/jquery-ui.js""></script>\n\t</head>\n\t\n\t<body>\n\t\t<div class = ""top-select-variables"">\n\t\t\t\n\t\t</div>\n\t\t\n\t\t<svg id = canvas></svg>\n\t\n\t</body>\n\n</html>\n----------------------------------- SOURCE END -------------------------------------",1454526747075
error,log,,,"Error in JSDT Core during reconcile",1454526747076
error,log,,,"Problems occurred when invoking code from plug-in: ""org.eclipse.wst.jsdt.ui"".",1454526747221
error,log,,,"Error in JSDT Core during AST creation",1454526747229
error,log,,,"Problems occurred when invoking code from plug-in: ""org.eclipse.wst.jsdt.ui"".",1454526748434
error,log,,,"Error in JSDT Core during AST creation",1454526748434
error,log,,,"Exception occurred during problem detection:\n----------------------------------- SOURCE BEGIN -------------------------------------\n<html>\n\t<head>\n\t\t<script type=""text/javascript"" src=""d3/d3.min.js""></script>\n\t\t<script src=""//code.jquery.com/jquery-1.10.2.js""></script>\n\t\t<script src=""//code.jquery.com/ui/1.11.2/jquery-ui.js""></script>\n\t</head>\n\t\n\t<body>\n\t\t<div class = ""top-select-variables"">\n\t\t\t\n\t\t</div>\n\t\t\n\t\t<svg id = canvas></svg>\n\t\n\t</body>\n\n</html>\n----------------------------------- SOURCE END -------------------------------------",1454526750586
error,log,,,"Error in JSDT Core during reconcile",1454526750586
error,log,,,"Problems occurred when invoking code from plug-in: ""org.eclipse.wst.jsdt.ui"".",1454526750689
error,log,,,"Error in JSDT Core during AST creation",1454526750689
error,log,,,"Exception occurred during problem detection:\n----------------------------------- SOURCE BEGIN -------------------------------------\n<html>\n\t<head>\n\t\t<script type=""text/javascript"" src=""d3/d3.min.js""></script>\n\t\t<script src=""//code.jquery.com/jquery-1.10.2.js""></script>\n\t\t<script src=""//code.jquery.com/ui/1.11.2/jquery-ui.js""></script>\n\t</head>\n\t\n\t<body>\n\t\t<div class = ""top-select-variables"">\n\t\t\t\n\t\t</div>\n\t\t\n\t\t<svg id = canvas></svg>\n\t\n\t</body>\n\n</html>\n----------------------------------- SOURCE END -------------------------------------",1454526751590
error,log,,,"Error in JSDT Core during reconcile",1454526751591
error,log,,,"Exception occurred during problem detection:\n----------------------------------- SOURCE BEGIN -------------------------------------\n<html>\n\t<head>\n\t\t<script type=""text/javascript"" src=""d3/d3.min.js""></script>\n\t\t<script src=""//code.jquery.com/jquery-1.10.2.js""></script>\n\t\t<script src=""//code.jquery.com/ui/1.11.2/jquery-ui.js""></script>\n\t</head>\n\t\n\t<body>\n\t\t<div class = ""top-select-variables"">\n\t\t\t\n\t\t</div>\n\t\t\n\t\t<svg id = canvas></svg>\n\t\n\t</body>\n\n</html>\n----------------------------------- SOURCE END -------------------------------------",1454526752595
error,log,,,"Error in JSDT Core during reconcile",1454526752596
error,log,,,"Problems occurred when invoking code from plug-in: ""org.eclipse.wst.jsdt.ui"".",1454526752780
error,log,,,"Error in JSDT Core during AST creation",1454526752781
deactivated,workbench,org.eclipse.ui.workbench,3.6.0.I20100603-1100,"",1454526754425
activated,workbench,org.eclipse.ui.workbench,3.6.0.I20100603-1100,"",1454526756351
error,log,,,"Exception occurred during problem detection:\n----------------------------------- SOURCE BEGIN -------------------------------------\n<html>\n\t<head>\n\t\t<script type=""text/javascript"" src=""d3/d3.min.js""></script>\n\t\t<script src=""//code.jquery.com/jquery-1.10.2.js""></script>\n\t\t<script src=""//code.jquery.com/ui/1.11.2/jquery-ui.js""></script>\n\t</head>\n\t\n\t<body>\n\t\t<div class = ""top-select-variables"">\n\t\t\t\n\t\t</div>\n\t\t\n\t\t<svg id = canvas></svg>\n\t\n\t</body>\n\n</html>\n----------------------------------- SOURCE END -------------------------------------",1454526760155
error,log,,,"Error in JSDT Core during reconcile",1454526760156
error,log,,,"Problems occurred when invoking code from plug-in: ""org.eclipse.wst.jsdt.ui"".",1454526760275
error,log,,,"Error in JSDT Core during AST creation",1454526760276
error,log,,,"Exception occurred during problem detection:\n----------------------------------- SOURCE BEGIN -------------------------------------\n<html>\n\t<head>\n\t\t<script type=""text/javascript"" src=""d3/d3.min.js""></script>\n\t\t<script src=""//code.jquery.com/jquery-1.10.2.js""></script>\n\t\t<script src=""//code.jquery.com/ui/1.11.2/jquery-ui.js""></script>\n\t</head>\n\t\n\t<body>\n\t\t<div class = ""top-select-variables"">\n\t\t\t\n\t\t</div>\n\t\t\n\t\t<svg id = canvas></svg>\n\t\n\t</body>\n\n</html>\n----------------------------------- SOURCE END -------------------------------------",1454526763666
error,log,,,"Error in JSDT Core during reconcile",1454526763666
error,log,,,"Problems occurred when invoking code from plug-in: ""org.eclipse.wst.jsdt.ui"".",1454526763667
error,log,,,"Error in JSDT Core during AST creation",1454526763667
error,log,,,"Unhandled event loop exception",1454526763927
error,log,,,"Unhandled event loop exception",1454526763939
error,log,,,"Unhandled event loop exception",1454526763956
executed,command,org.eclipse.ui,3.6.0.I20100603-1100,"org.eclipse.ui.file.save",1454526763999
error,log,,,"Unhandled event loop exception",1454526764033
error,log,,,"Unhandled event loop exception",1454526764034
error,log,,,"Unhandled event loop exception",1454526764232
error,log,,,"Unhandled event loop exception",1454526764249
deactivated,workbench,org.eclipse.ui.workbench,3.6.0.I20100603-1100,"",1454526764901
activated,workbench,org.eclipse.ui.workbench,3.6.0.I20100603-1100,"",1454526770819
error,log,,,"Unexpected runtime error while computing a text hover",1454526772919
error,log,,,"Unexpected runtime error while computing a text hover",1454526774614
error,log,,,"Exception occurred during problem detection:\n----------------------------------- SOURCE BEGIN -------------------------------------\n<html>\n\t<head>\n\t\t<script type=""text/javascript"" src=""d3/d3.min.js""></script>\n\t\t<script src=""//code.jquery.com/jquery-1.10.2.js""></script>\n\t\t<script src=""//code.jquery.com/ui/1.11.2/jquery-ui.js""></script>\n\t</head>\n\t\n\t<body>\n\t\t<div class = ""top-select-variables"">\n\t\t\t\n\t\t</div>\n\t\t\n\t\t<svg id = canvas></svg>\n\t\n\t</body>\n\n</html>\n----------------------------------- SOURCE END -------------------------------------",1454526776689
error,log,,,"Error in JSDT Core during reconcile",1454526776689
error,log,,,"Exception occurred during problem detection:\n----------------------------------- SOURCE BEGIN -------------------------------------\n<html>\n\t<head>\n\t\t<script type=""text/javascript"" src=""d3/d3.min.js""></script>\n\t\t<script src=""//code.jquery.com/jquery-1.10.2.js""></script>\n\t\t<script src=""//code.jquery.com/ui/1.11.2/jquery-ui.js""></script>\n\t</head>\n\t\n\t<body>\n\t\t<div class = ""top-select-variables"">\n\t\t\t\n\t\t</div>\n\t\t\n\t\t<svg id = canvas></svg>\n\t\n\t</body>\n\n</html>\n----------------------------------- SOURCE END -------------------------------------",1454526779704
error,log,,,"Error in JSDT Core during reconcile",1454526779704
error,log,,,"Problems occurred when invoking code from plug-in: ""org.eclipse.wst.jsdt.ui"".",1454526780095
error,log,,,"Error in JSDT Core during AST creation",1454526780096
executed,command,org.eclipse.ui,3.6.0.I20100603-1100,"org.eclipse.ui.edit.undo",1454526780466
error,log,,,"Exception occurred during problem detection:\n----------------------------------- SOURCE BEGIN -------------------------------------\n<html>\n\t<head>\n\t\t<script type=""text/javascript"" src=""d3/d3.min.js""></script>\n\t\t<script src=""//code.jquery.com/jquery-1.10.2.js""></script>\n\t\t<script src=""//code.jquery.com/ui/1.11.2/jquery-ui.js""></script>\n\t</head>\n\t\n\t<body>\n\t\t<div class = ""top-select-variables"">\n\t\t\t\n\t\t</div>\n\t\t\n\t\t<svg id = canvas></svg>\n\t\n\t</body>\n\n</html>\n----------------------------------- SOURCE END -------------------------------------",1454526781209
error,log,,,"Error in JSDT Core during reconcile",1454526781210
error,log,,,"Problems occurred when invoking code from plug-in: ""org.eclipse.wst.jsdt.ui"".",1454526781523
error,log,,,"Error in JSDT Core during AST creation",1454526781523
error,log,,,"Exception occurred during problem detection:\n----------------------------------- SOURCE BEGIN -------------------------------------\n<html>\n\t<head>\n\t\t<script type=""text/javascript"" src=""d3/d3.min.js""></script>\n\t\t<script src=""//code.jquery.com/jquery-1.10.2.js""></script>\n\t\t<script src=""//code.jquery.com/ui/1.11.2/jquery-ui.js""></script>\n\t</head>\n\t\n\t<body>\n\t\t<div class = ""top-select-variables"">\n\t\t\t\n\t\t</div>\n\t\t\n\t\t<svg id = canvas></svg>\n\t\n\t</body>\n\n</html>\n----------------------------------- SOURCE END -------------------------------------",1454526784217
error,log,,,"Error in JSDT Core during reconcile",1454526784217
error,log,,,"Problems occurred when invoking code from plug-in: ""org.eclipse.wst.jsdt.ui"".",1454526784218
error,log,,,"Error in JSDT Core during AST creation",1454526784218
error,log,,,"Exception occurred during problem detection:\n----------------------------------- SOURCE BEGIN -------------------------------------\n<html>\n\t<head>\n\t\t<script type=""text/javascript"" src=""d3/d3.min.js""></script>\n\t\t<script src=""//code.jquery.com/jquery-1.10.2.js""></script>\n\t\t<script src=""//code.jquery.com/ui/1.11.2/jquery-ui.js""></script>\n\t</head>\n\t\n\t<body>\n\t\t<div class = ""top-select-variables"">\n\t\t\t\n\t\t</div>\n\t\t\n\t\t<svg id = canvas></svg>\n\t\n\t</body>\n\n</html>\n----------------------------------- SOURCE END -------------------------------------",1454526786225
error,log,,,"Error in JSDT Core during reconcile",1454526786226
error,log,,,"Problems occurred when invoking code from plug-in: ""org.eclipse.wst.jsdt.ui"".",1454526786227
error,log,,,"Error in JSDT Core during AST creation",1454526786227
error,log,,,"Exception occurred during problem detection:\n----------------------------------- SOURCE BEGIN -------------------------------------\n<html>\n\t<head>\n\t\t<script type=""text/javascript"" src=""d3/d3.min.js""></script>\n\t\t<script src=""//code.jquery.com/jquery-1.10.2.js""></script>\n\t\t<script src=""//code.jquery.com/ui/1.11.2/jquery-ui.js""></script>\n\t</head>\n\t\n\t<body>\n\t\t<div class = ""top-select-variables"">\n\t\t\t\n\t\t</div>\n\t\t\n\t\t<svg id = canvas></svg>\n\t\n\t</body>\n\n</html>\n----------------------------------- SOURCE END -------------------------------------",1454526793240
error,log,,,"Error in JSDT Core during reconcile",1454526793241
error,log,,,"Problems occurred when invoking code from plug-in: ""org.eclipse.wst.jsdt.ui"".",1454526793241
error,log,,,"Error in JSDT Core during AST creation",1454526793242
error,log,,,"Unhandled event loop exception",1454526794509
error,log,,,"Unhandled event loop exception",1454526794632
error,log,,,"Exception occurred during problem detection:\n----------------------------------- SOURCE BEGIN -------------------------------------\n<html>\n\t<head>\n\t\t<script type=""text/javascript"" src=""d3/d3.min.js""></script>\n\t\t<script src=""//code.jquery.com/jquery-1.10.2.js""></script>\n\t\t<script src=""//code.jquery.com/ui/1.11.2/jquery-ui.js""></script>\n\t</head>\n\t\n\t<body>\n\t\t<div class = ""top-select-variables"">\n\t\t\t\n\t\t</div>\n\t\t\n\t\t<svg id = canvas></svg>\n\t\n\t</body>\n\n</html>\n----------------------------------- SOURCE END -------------------------------------",1454526794746
error,log,,,"Error in JSDT Core during reconcile",1454526794747
error,log,,,"Problems occurred when invoking code from plug-in: ""org.eclipse.wst.jsdt.ui"".",1454526794748
error,log,,,"Error in JSDT Core during AST creation",1454526794748
error,log,,,"Unhandled event loop exception",1454526794889
error,log,,,"Unhandled event loop exception",1454526794906
error,log,,,"Unhandled event loop exception",1454526794924
error,log,,,"Unhandled event loop exception",1454526794940
error,log,,,"Unhandled event loop exception",1454526794988
error,log,,,"Unhandled event loop exception",1454526795005
error,log,,,"Unhandled event loop exception",1454526795023
error,log,,,"Unhandled event loop exception",1454526795039
error,log,,,"Unhandled event loop exception",1454526795057
error,log,,,"Unhandled event loop exception",1454526795073
error,log,,,"Unhandled event loop exception",1454526795091
error,log,,,"Unhandled event loop exception",1454526795108
error,log,,,"Unhandled event loop exception",1454526795125
error,log,,,"Unhandled event loop exception",1454526795142
error,log,,,"Exception occurred during problem detection:\n----------------------------------- SOURCE BEGIN -------------------------------------\n<html>\n\t<head>\n\t\t<script type=""text/javascript"" src=""d3/d3.min.js""></script>\n\t\t<script src=""//code.jquery.com/jquery-1.10.2.js""></script>\n\t\t<script src=""//code.jquery.com/ui/1.11.2/jquery-ui.js""></script>\n\t</head>\n\t\n\t<body>\n\t\t<div class = ""top-select-variables"">\n\t\t\t\n\t\t</div>\n\t\t\n\t\t<svg id = canvas></svg>\n\t\n\t</body>\n\n</html>\n----------------------------------- SOURCE END -------------------------------------",1454526797754
error,log,,,"Error in JSDT Core during reconcile",1454526797755
error,log,,,"Problems occurred when invoking code from plug-in: ""org.eclipse.wst.jsdt.ui"".",1454526797909
error,log,,,"Error in JSDT Core during AST creation",1454526797909
error,log,,,"Unhandled event loop exception",1454526797937
error,log,,,"Unhandled event loop exception",1454526797954
error,log,,,"Unhandled event loop exception",1454526797974
error,log,,,"Unhandled event loop exception",1454526797988
error,log,,,"Unhandled event loop exception",1454526798005
error,log,,,"Unhandled event loop exception",1454526798023
executed,command,org.eclipse.ui,3.6.0.I20100603-1100,"org.eclipse.ui.file.save",1454526798055
error,log,,,"Unhandled event loop exception",1454526798088
error,log,,,"Unhandled event loop exception",1454526798155
error,log,,,"Unhandled event loop exception",1454526798172
deactivated,workbench,org.eclipse.ui.workbench,3.6.0.I20100603-1100,"",1454526798985
activated,workbench,org.eclipse.ui.workbench,3.6.0.I20100603-1100,"",1454526814839
error,log,,,"Unhandled event loop exception",1454526819031
error,log,,,"Unhandled event loop exception",1454526819048
error,log,,,"Unhandled event loop exception",1454526819065
error,log,,,"Unhandled event loop exception",1454526819082
error,log,,,"Unhandled event loop exception",1454526819099
error,log,,,"Unhandled event loop exception",1454526819116
