what,kind,bundleId,bundleVersion,description,time
error,log,,,"Problems occurred when invoking code from plug-in: ""org.eclipse.wst.jsdt.ui"".",1454558781272
error,log,,,"Error in JSDT Core during AST creation",1454558781274
deactivated,workbench,org.eclipse.ui.workbench,3.6.0.I20100603-1100,"",1454558782735
activated,workbench,org.eclipse.ui.workbench,3.6.0.I20100603-1100,"",1454558824754
error,log,,,"Exception occurred during problem detection:\n----------------------------------- SOURCE BEGIN -------------------------------------\n<html>\n\t<head>\n\t\t<script type=""text/javascript"" src=""d3/d3.min.js""></script>\n\t\t<script src=""//code.jquery.com/jquery-1.10.2.js""></script>\n\t\t<script src=""//code.jquery.com/ui/1.11.2/jquery-ui.js""></script>\n\t</head>\n\t\n\t<body>\n\t\t<div class = ""top-select-variables"">\n\t\t\t\n\t\t</div>\n\t\t\n\t\t<svg id = canvas></svg>\n\t\n\t</body>\n\n</html>\n----------------------------------- SOURCE END -------------------------------------",1454558827997
error,log,,,"Error in JSDT Core during reconcile",1454558827998
error,log,,,"Problems occurred when invoking code from plug-in: ""org.eclipse.wst.jsdt.ui"".",1454558828049
error,log,,,"Error in JSDT Core during AST creation",1454558828050
error,log,,,"Exception occurred during problem detection:\n----------------------------------- SOURCE BEGIN -------------------------------------\n<html>\n\t<head>\n\t\t<script type=""text/javascript"" src=""d3/d3.min.js""></script>\n\t\t<script src=""//code.jquery.com/jquery-1.10.2.js""></script>\n\t\t<script src=""//code.jquery.com/ui/1.11.2/jquery-ui.js""></script>\n\t</head>\n\t\n\t<body>\n\t\t<div class = ""top-select-variables"">\n\t\t\t\n\t\t</div>\n\t\t\n\t\t<svg id = canvas></svg>\n\t\n\t</body>\n\n</html>\n----------------------------------- SOURCE END -------------------------------------",1454558830513
error,log,,,"Error in JSDT Core during reconcile",1454558830514
error,log,,,"Problems occurred when invoking code from plug-in: ""org.eclipse.wst.jsdt.ui"".",1454558830516
error,log,,,"Error in JSDT Core during AST creation",1454558830516
deactivated,workbench,org.eclipse.ui.workbench,3.6.0.I20100603-1100,"",1454558830816
activated,workbench,org.eclipse.ui.workbench,3.6.0.I20100603-1100,"",1454558843139
error,log,,,"Exception occurred during problem detection:\n----------------------------------- SOURCE BEGIN -------------------------------------\n<html>\n\t<head>\n\t\t<script type=""text/javascript"" src=""d3/d3.min.js""></script>\n\t\t<script src=""//code.jquery.com/jquery-1.10.2.js""></script>\n\t\t<script src=""//code.jquery.com/ui/1.11.2/jquery-ui.js""></script>\n\t</head>\n\t\n\t<body>\n\t\t<div class = ""top-select-variables"">\n\t\t\t\n\t\t</div>\n\t\t\n\t\t<svg id = canvas></svg>\n\t\n\t</body>\n\n</html>\n----------------------------------- SOURCE END -------------------------------------",1454558846052
error,log,,,"Error in JSDT Core during reconcile",1454558846053
error,log,,,"Exception occurred during problem detection:\n----------------------------------- SOURCE BEGIN -------------------------------------\n<html>\n\t<head>\n\t\t<script type=""text/javascript"" src=""d3/d3.min.js""></script>\n\t\t<script src=""//code.jquery.com/jquery-1.10.2.js""></script>\n\t\t<script src=""//code.jquery.com/ui/1.11.2/jquery-ui.js""></script>\n\t</head>\n\t\n\t<body>\n\t\t<div class = ""top-select-variables"">\n\t\t\t\n\t\t</div>\n\t\t\n\t\t<svg id = canvas></svg>\n\t\n\t</body>\n\n</html>\n----------------------------------- SOURCE END -------------------------------------",1454558848566
error,log,,,"Error in JSDT Core during reconcile",1454558848567
error,log,,,"Exception occurred during problem detection:\n----------------------------------- SOURCE BEGIN -------------------------------------\n<html>\n\t<head>\n\t\t<script type=""text/javascript"" src=""d3/d3.min.js""></script>\n\t\t<script src=""//code.jquery.com/jquery-1.10.2.js""></script>\n\t\t<script src=""//code.jquery.com/ui/1.11.2/jquery-ui.js""></script>\n\t</head>\n\t\n\t<body>\n\t\t<div class = ""top-select-variables"">\n\t\t\t\n\t\t</div>\n\t\t\n\t\t<svg id = canvas></svg>\n\t\n\t</body>\n\n</html>\n----------------------------------- SOURCE END -------------------------------------",1454558849573
error,log,,,"Error in JSDT Core during reconcile",1454558849573
error,log,,,"Problems occurred when invoking code from plug-in: ""org.eclipse.wst.jsdt.ui"".",1454558849574
error,log,,,"Error in JSDT Core during AST creation",1454558849574
error,log,,,"Exception occurred during problem detection:\n----------------------------------- SOURCE BEGIN -------------------------------------\n<html>\n\t<head>\n\t\t<script type=""text/javascript"" src=""d3/d3.min.js""></script>\n\t\t<script src=""//code.jquery.com/jquery-1.10.2.js""></script>\n\t\t<script src=""//code.jquery.com/ui/1.11.2/jquery-ui.js""></script>\n\t</head>\n\t\n\t<body>\n\t\t<div class = ""top-select-variables"">\n\t\t\t\n\t\t</div>\n\t\t\n\t\t<svg id = canvas></svg>\n\t\n\t</body>\n\n</html>\n----------------------------------- SOURCE END -------------------------------------",1454558851080
error,log,,,"Error in JSDT Core during reconcile",1454558851081
error,log,,,"Problems occurred when invoking code from plug-in: ""org.eclipse.wst.jsdt.ui"".",1454558851132
error,log,,,"Error in JSDT Core during AST creation",1454558851133
error,log,,,"Problems occurred when invoking code from plug-in: ""org.eclipse.wst.jsdt.ui"".",1454558852102
error,log,,,"Error in JSDT Core during AST creation",1454558852103
error,log,,,"Exception occurred during problem detection:\n----------------------------------- SOURCE BEGIN -------------------------------------\n<html>\n\t<head>\n\t\t<script type=""text/javascript"" src=""d3/d3.min.js""></script>\n\t\t<script src=""//code.jquery.com/jquery-1.10.2.js""></script>\n\t\t<script src=""//code.jquery.com/ui/1.11.2/jquery-ui.js""></script>\n\t</head>\n\t\n\t<body>\n\t\t<div class = ""top-select-variables"">\n\t\t\t\n\t\t</div>\n\t\t\n\t\t<svg id = canvas></svg>\n\t\n\t</body>\n\n</html>\n----------------------------------- SOURCE END -------------------------------------",1454558853588
error,log,,,"Error in JSDT Core during reconcile",1454558853589
deactivated,workbench,org.eclipse.ui.workbench,3.6.0.I20100603-1100,"",1454558853758
error,log,,,"Exception occurred during problem detection:\n----------------------------------- SOURCE BEGIN -------------------------------------\n<html>\n\t<head>\n\t\t<script type=""text/javascript"" src=""d3/d3.min.js""></script>\n\t\t<script src=""//code.jquery.com/jquery-1.10.2.js""></script>\n\t\t<script src=""//code.jquery.com/ui/1.11.2/jquery-ui.js""></script>\n\t</head>\n\t\n\t<body>\n\t\t<div class = ""top-select-variables"">\n\t\t\t\n\t\t</div>\n\t\t\n\t\t<svg id = canvas></svg>\n\t\n\t</body>\n\n</html>\n----------------------------------- SOURCE END -------------------------------------",1454558854593
error,log,,,"Error in JSDT Core during reconcile",1454558854594
error,log,,,"Problems occurred when invoking code from plug-in: ""org.eclipse.wst.jsdt.ui"".",1454558854605
error,log,,,"Error in JSDT Core during AST creation",1454558854606
activated,workbench,org.eclipse.ui.workbench,3.6.0.I20100603-1100,"",1454558854793
error,log,,,"Internal Error",1454558854845
error,log,,,"Exception occurred during problem detection:\n----------------------------------- SOURCE BEGIN -------------------------------------\n<html>\n\t<head>\n\t\t<script type=""text/javascript"" src=""d3/d3.min.js""></script>\n\t\t<script src=""//code.jquery.com/jquery-1.10.2.js""></script>\n\t\t<script src=""//code.jquery.com/ui/1.11.2/jquery-ui.js""></script>\n\t</head>\n\t\n\t<body>\n\t\t<div class = ""top-select-variables"">\n\t\t\t\n\t\t</div>\n\t\t\n\t\t<svg id = canvas></svg>\n\t\n\t</body>\n\n</html>\n----------------------------------- SOURCE END -------------------------------------",1454558856111
error,log,,,"Error in JSDT Core during reconcile",1454558856112
error,log,,,"Exception occurred during problem detection:\n----------------------------------- SOURCE BEGIN -------------------------------------\n<html>\n\t<head>\n\t\t<script type=""text/javascript"" src=""d3/d3.min.js""></script>\n\t\t<script src=""//code.jquery.com/jquery-1.10.2.js""></script>\n\t\t<script src=""//code.jquery.com/ui/1.11.2/jquery-ui.js""></script>\n\t</head>\n\t\n\t<body>\n\t\t<div class = ""top-select-variables"">\n\t\t\t\n\t\t</div>\n\t\t\n\t\t<svg id = canvas></svg>\n\t\n\t</body>\n\n</html>\n----------------------------------- SOURCE END -------------------------------------",1454558858621
error,log,,,"Error in JSDT Core during reconcile",1454558858622
error,log,,,"Exception occurred during problem detection:\n----------------------------------- SOURCE BEGIN -------------------------------------\n<html>\n\t<head>\n\t\t<script type=""text/javascript"" src=""d3/d3.min.js""></script>\n\t\t<script src=""//code.jquery.com/jquery-1.10.2.js""></script>\n\t\t<script src=""//code.jquery.com/ui/1.11.2/jquery-ui.js""></script>\n\t</head>\n\t\n\t<body>\n\t\t<div class = ""top-select-variables"">\n\t\t\t\n\t\t</div>\n\t\t\n\t\t<svg id = canvas></svg>\n\t\n\t</body>\n\n</html>\n----------------------------------- SOURCE END -------------------------------------",1454558859632
error,log,,,"Error in JSDT Core during reconcile",1454558859632
error,log,,,"Problems occurred when invoking code from plug-in: ""org.eclipse.wst.jsdt.ui"".",1454558859633
error,log,,,"Error in JSDT Core during AST creation",1454558859633
error,log,,,"Exception occurred during problem detection:\n----------------------------------- SOURCE BEGIN -------------------------------------\n<html>\n\t<head>\n\t\t<script type=""text/javascript"" src=""d3/d3.min.js""></script>\n\t\t<script src=""//code.jquery.com/jquery-1.10.2.js""></script>\n\t\t<script src=""//code.jquery.com/ui/1.11.2/jquery-ui.js""></script>\n\t</head>\n\t\n\t<body>\n\t\t<div class = ""top-select-variables"">\n\t\t\t\n\t\t</div>\n\t\t\n\t\t<svg id = canvas></svg>\n\t\n\t</body>\n\n</html>\n----------------------------------- SOURCE END -------------------------------------",1454558863643
error,log,,,"Error in JSDT Core during reconcile",1454558863643
error,log,,,"Problems occurred when invoking code from plug-in: ""org.eclipse.wst.jsdt.ui"".",1454558863664
error,log,,,"Error in JSDT Core during AST creation",1454558863664
error,log,,,"Unhandled event loop exception",1454558863688
error,log,,,"Unhandled event loop exception",1454558863826
executed,command,org.eclipse.ui,3.6.0.I20100603-1100,"org.eclipse.ui.file.save",1454558863847
deactivated,workbench,org.eclipse.ui.workbench,3.6.0.I20100603-1100,"",1454558865191
activated,workbench,org.eclipse.ui.workbench,3.6.0.I20100603-1100,"",1454558885902
error,log,,,"Problems occurred when invoking code from plug-in: ""org.eclipse.wst.jsdt.ui"".",1454558888045
error,log,,,"Error in JSDT Core during AST creation",1454558888045
error,log,,,"Unexpected runtime error while computing a text hover",1454558888076
error,log,,,"Exception occurred during problem detection:\n----------------------------------- SOURCE BEGIN -------------------------------------\n<html>\n\t<head>\n\t\t<script type=""text/javascript"" src=""d3/d3.min.js""></script>\n\t\t<script src=""//code.jquery.com/jquery-1.10.2.js""></script>\n\t\t<script src=""//code.jquery.com/ui/1.11.2/jquery-ui.js""></script>\n\t</head>\n\t\n\t<body>\n\t\t<div class = ""top-select-variables"">\n\t\t\t\n\t\t</div>\n\t\t\n\t\t<svg id = canvas></svg>\n\t\n\t</body>\n\n</html>\n----------------------------------- SOURCE END -------------------------------------",1454558889192
error,log,,,"Error in JSDT Core during reconcile",1454558889193
executed,command,org.eclipse.ui,3.6.0.I20100603-1100,"org.eclipse.ui.file.save",1454558889246
error,log,,,"Problems occurred when invoking code from plug-in: ""org.eclipse.wst.jsdt.ui"".",1454558889395
error,log,,,"Error in JSDT Core during AST creation",1454558889396
error,log,,,"Exception occurred during problem detection:\n----------------------------------- SOURCE BEGIN -------------------------------------\n<html>\n\t<head>\n\t\t<script type=""text/javascript"" src=""d3/d3.min.js""></script>\n\t\t<script src=""//code.jquery.com/jquery-1.10.2.js""></script>\n\t\t<script src=""//code.jquery.com/ui/1.11.2/jquery-ui.js""></script>\n\t</head>\n\t\n\t<body>\n\t\t<div class = ""top-select-variables"">\n\t\t\t\n\t\t</div>\n\t\t\n\t\t<svg id = canvas></svg>\n\t\n\t</body>\n\n</html>\n----------------------------------- SOURCE END -------------------------------------",1454558891197
error,log,,,"Error in JSDT Core during reconcile",1454558891198
error,log,,,"Problems occurred when invoking code from plug-in: ""org.eclipse.wst.jsdt.ui"".",1454558891199
error,log,,,"Error in JSDT Core during AST creation",1454558891199
executed,command,org.eclipse.ui,3.6.0.I20100603-1100,"org.eclipse.ui.file.save",1454558892934
error,log,,,"Exception occurred during problem detection:\n----------------------------------- SOURCE BEGIN -------------------------------------\n<html>\n\t<head>\n\t\t<script type=""text/javascript"" src=""d3/d3.min.js""></script>\n\t\t<script src=""//code.jquery.com/jquery-1.10.2.js""></script>\n\t\t<script src=""//code.jquery.com/ui/1.11.2/jquery-ui.js""></script>\n\t</head>\n\t\n\t<body>\n\t\t<div class = ""top-select-variables"">\n\t\t\t\n\t\t</div>\n\t\t\n\t\t<svg id = canvas></svg>\n\t\n\t</body>\n\n</html>\n----------------------------------- SOURCE END -------------------------------------",1454558893206
error,log,,,"Error in JSDT Core during reconcile",1454558893206
error,log,,,"Problems occurred when invoking code from plug-in: ""org.eclipse.wst.jsdt.ui"".",1454558893207
error,log,,,"Error in JSDT Core during AST creation",1454558893207
deactivated,workbench,org.eclipse.ui.workbench,3.6.0.I20100603-1100,"",1454558893945
activated,workbench,org.eclipse.ui.workbench,3.6.0.I20100603-1100,"",1454558928542
error,log,,,"Problems occurred when invoking code from plug-in: ""org.eclipse.wst.jsdt.ui"".",1454558931777
error,log,,,"Error in JSDT Core during AST creation",1454558931777
error,log,,,"Exception occurred during problem detection:\n----------------------------------- SOURCE BEGIN -------------------------------------\n<html>\n\t<head>\n\t\t<script type=""text/javascript"" src=""d3/d3.min.js""></script>\n\t\t<script src=""//code.jquery.com/jquery-1.10.2.js""></script>\n\t\t<script src=""//code.jquery.com/ui/1.11.2/jquery-ui.js""></script>\n\t</head>\n\t\n\t<body>\n\t\t<div class = ""top-select-variables"">\n\t\t\t\n\t\t</div>\n\t\t\n\t\t<svg id = canvas></svg>\n\t\n\t</body>\n\n</html>\n----------------------------------- SOURCE END -------------------------------------",1454558936792
error,log,,,"Error in JSDT Core during reconcile",1454558936792
error,log,,,"Exception occurred during problem detection:\n----------------------------------- SOURCE BEGIN -------------------------------------\n<html>\n\t<head>\n\t\t<script type=""text/javascript"" src=""d3/d3.min.js""></script>\n\t\t<script src=""//code.jquery.com/jquery-1.10.2.js""></script>\n\t\t<script src=""//code.jquery.com/ui/1.11.2/jquery-ui.js""></script>\n\t</head>\n\t\n\t<body>\n\t\t<div class = ""top-select-variables"">\n\t\t\t\n\t\t</div>\n\t\t\n\t\t<svg id = canvas></svg>\n\t\n\t</body>\n\n</html>\n----------------------------------- SOURCE END -------------------------------------",1454558937804
error,log,,,"Error in JSDT Core during reconcile",1454558937804
error,log,,,"Problems occurred when invoking code from plug-in: ""org.eclipse.wst.jsdt.ui"".",1454558937810
error,log,,,"Error in JSDT Core during AST creation",1454558937811
executed,command,org.eclipse.ui,3.6.0.I20100603-1100,"org.eclipse.ui.file.save",1454558947943
error,log,,,"Exception occurred during problem detection:\n----------------------------------- SOURCE BEGIN -------------------------------------\n<html>\n\t<head>\n\t\t<script type=""text/javascript"" src=""d3/d3.min.js""></script>\n\t\t<script src=""//code.jquery.com/jquery-1.10.2.js""></script>\n\t\t<script src=""//code.jquery.com/ui/1.11.2/jquery-ui.js""></script>\n\t</head>\n\t\n\t<body>\n\t\t<div class = ""top-select-variables"">\n\t\t\t\n\t\t</div>\n\t\t\n\t\t<svg id = canvas></svg>\n\t\n\t</body>\n\n</html>\n----------------------------------- SOURCE END -------------------------------------",1454558948338
error,log,,,"Error in JSDT Core during reconcile",1454558948339
error,log,,,"Problems occurred when invoking code from plug-in: ""org.eclipse.wst.jsdt.ui"".",1454558948339
error,log,,,"Error in JSDT Core during AST creation",1454558948340
deactivated,workbench,org.eclipse.ui.workbench,3.6.0.I20100603-1100,"",1454558948826
activated,workbench,org.eclipse.ui.workbench,3.6.0.I20100603-1100,"",1454559019709
error,log,,,"Exception occurred during problem detection:\n----------------------------------- SOURCE BEGIN -------------------------------------\n<html>\n\t<head>\n\t\t<script type=""text/javascript"" src=""d3/d3.min.js""></script>\n\t\t<script src=""//code.jquery.com/jquery-1.10.2.js""></script>\n\t\t<script src=""//code.jquery.com/ui/1.11.2/jquery-ui.js""></script>\n\t</head>\n\t\n\t<body>\n\t\t<div class = ""top-select-variables"">\n\t\t\t\n\t\t</div>\n\t\t\n\t\t<svg id = canvas></svg>\n\t\n\t</body>\n\n</html>\n----------------------------------- SOURCE END -------------------------------------",1454559023526
error,log,,,"Error in JSDT Core during reconcile",1454559023526
error,log,,,"Problems occurred when invoking code from plug-in: ""org.eclipse.wst.jsdt.ui"".",1454559023527
error,log,,,"Error in JSDT Core during AST creation",1454559023527
error,log,,,"Exception occurred during problem detection:\n----------------------------------- SOURCE BEGIN -------------------------------------\n<html>\n\t<head>\n\t\t<script type=""text/javascript"" src=""d3/d3.min.js""></script>\n\t\t<script src=""//code.jquery.com/jquery-1.10.2.js""></script>\n\t\t<script src=""//code.jquery.com/ui/1.11.2/jquery-ui.js""></script>\n\t</head>\n\t\n\t<body>\n\t\t<div class = ""top-select-variables"">\n\t\t\t\n\t\t</div>\n\t\t\n\t\t<svg id = canvas></svg>\n\t\n\t</body>\n\n</html>\n----------------------------------- SOURCE END -------------------------------------",1454559025533
error,log,,,"Error in JSDT Core during reconcile",1454559025534
executed,command,org.eclipse.ui,3.6.0.I20100603-1100,"org.eclipse.ui.edit.paste",1454559025831
error,log,,,"Exception occurred during problem detection:\n----------------------------------- SOURCE BEGIN -------------------------------------\n<html>\n\t<head>\n\t\t<script type=""text/javascript"" src=""d3/d3.min.js""></script>\n\t\t<script src=""//code.jquery.com/jquery-1.10.2.js""></script>\n\t\t<script src=""//code.jquery.com/ui/1.11.2/jquery-ui.js""></script>\n\t</head>\n\t\n\t<body>\n\t\t<div class = ""top-select-variables"">\n\t\t\t\n\t\t</div>\n\t\t\n\t\t<svg id = canvas></svg>\n\t\n\t</body>\n\n</html>\n----------------------------------- SOURCE END -------------------------------------",1454559026549
error,log,,,"Error in JSDT Core during reconcile",1454559026549
error,log,,,"Problems occurred when invoking code from plug-in: ""org.eclipse.wst.jsdt.ui"".",1454559026613
error,log,,,"Error in JSDT Core during AST creation",1454559026613
error,log,,,"Unhandled event loop exception",1454559033143
error,log,,,"Unhandled event loop exception",1454559033160
error,log,,,"Unhandled event loop exception",1454559033177
error,log,,,"Unhandled event loop exception",1454559033194
error,log,,,"Unhandled event loop exception",1454559033211
executed,command,org.eclipse.ui,3.6.0.I20100603-1100,"org.eclipse.ui.file.save",1454559033397
deactivated,workbench,org.eclipse.ui.workbench,3.6.0.I20100603-1100,"",1454559033899
activated,workbench,org.eclipse.ui.workbench,3.6.0.I20100603-1100,"",1454559061329
error,log,,,"Unexpected runtime error while computing a text hover",1454559064557
error,log,,,"Problems occurred when invoking code from plug-in: ""org.eclipse.wst.jsdt.ui"".",1454559067630
error,log,,,"Error in JSDT Core during AST creation",1454559067630
error,log,,,"Unexpected runtime error while computing a text hover",1454559067666
error,log,,,"Unhandled event loop exception",1454559069380
error,log,,,"Exception occurred during problem detection:\n----------------------------------- SOURCE BEGIN -------------------------------------\n<html>\n\t<head>\n\t\t<script type=""text/javascript"" src=""d3/d3.min.js""></script>\n\t\t<script src=""//code.jquery.com/jquery-1.10.2.js""></script>\n\t\t<script src=""//code.jquery.com/ui/1.11.2/jquery-ui.js""></script>\n\t</head>\n\t\n\t<body>\n\t\t<div class = ""top-select-variables"">\n\t\t\t\n\t\t</div>\n\t\t\n\t\t<svg id = canvas></svg>\n\t\n\t</body>\n\n</html>\n----------------------------------- SOURCE END -------------------------------------",1454559069627
error,log,,,"Error in JSDT Core during reconcile",1454559069627
error,log,,,"Problems occurred when invoking code from plug-in: ""org.eclipse.wst.jsdt.ui"".",1454559069631
error,log,,,"Error in JSDT Core during AST creation",1454559069631
executed,command,org.eclipse.ui,3.6.0.I20100603-1100,"org.eclipse.ui.file.save",1454559069660
error,log,,,"Problems occurred when invoking code from plug-in: ""org.eclipse.wst.jsdt.ui"".",1454559076671
error,log,,,"Error in JSDT Core during AST creation",1454559076671
error,log,,,"Unhandled event loop exception",1454559078361
error,log,,,"Unhandled event loop exception",1454559078378
error,log,,,"Unhandled event loop exception",1454559078395
error,log,,,"Unhandled event loop exception",1454559078412
error,log,,,"Unhandled event loop exception",1454559078430
executed,command,org.eclipse.ui,3.6.0.I20100603-1100,"org.eclipse.ui.file.save",1454559078444
error,log,,,"Exception occurred during problem detection:\n----------------------------------- SOURCE BEGIN -------------------------------------\n<html>\n\t<head>\n\t\t<script type=""text/javascript"" src=""d3/d3.min.js""></script>\n\t\t<script src=""//code.jquery.com/jquery-1.10.2.js""></script>\n\t\t<script src=""//code.jquery.com/ui/1.11.2/jquery-ui.js""></script>\n\t</head>\n\t\n\t<body>\n\t\t<div class = ""top-select-variables"">\n\t\t\t\n\t\t</div>\n\t\t\n\t\t<svg id = canvas></svg>\n\t\n\t</body>\n\n</html>\n----------------------------------- SOURCE END -------------------------------------",1454559078645
error,log,,,"Error in JSDT Core during reconcile",1454559078645
error,log,,,"Problems occurred when invoking code from plug-in: ""org.eclipse.wst.jsdt.ui"".",1454559078646
error,log,,,"Error in JSDT Core during AST creation",1454559078646
error,log,,,"Unhandled event loop exception",1454559078684
deactivated,workbench,org.eclipse.ui.workbench,3.6.0.I20100603-1100,"",1454559079356
activated,view,org.eclipse.ui.views,3.5.0.I20100527-0800,"org.eclipse.ui.views.ContentOutline",1454559093554
activated,workbench,org.eclipse.ui.workbench,3.6.0.I20100603-1100,"",1454559093960
activated,editor,org.eclipse.wst.jsdt.ui,1.1.0.v201005200157,"org.eclipse.wst.jsdt.ui.CompilationUnitEditor",1454559095521
error,log,,,"Problems occurred when invoking code from plug-in: ""org.eclipse.wst.jsdt.ui"".",1454559095623
error,log,,,"Error in JSDT Core during AST creation",1454559095623
executed,command,org.eclipse.ui,3.6.0.I20100603-1100,"org.eclipse.ui.edit.copy",1454559096350
error,log,,,"Problems occurred when invoking code from plug-in: ""org.eclipse.wst.jsdt.ui"".",1454559096466
error,log,,,"Error in JSDT Core during AST creation",1454559096467
error,log,,,"Exception occurred during problem detection:\n----------------------------------- SOURCE BEGIN -------------------------------------\n<html>\n\t<head>\n\t\t<script type=""text/javascript"" src=""d3/d3.min.js""></script>\n\t\t<script src=""//code.jquery.com/jquery-1.10.2.js""></script>\n\t\t<script src=""//code.jquery.com/ui/1.11.2/jquery-ui.js""></script>\n\t</head>\n\t\n\t<body>\n\t\t<div class = ""top-select-variables"">\n\t\t\t\n\t\t</div>\n\t\t\n\t\t<svg id = canvas></svg>\n\t\n\t</body>\n\n</html>\n----------------------------------- SOURCE END -------------------------------------",1454559097680
error,log,,,"Error in JSDT Core during reconcile",1454559097681
error,log,,,"Problems occurred when invoking code from plug-in: ""org.eclipse.wst.jsdt.ui"".",1454559097682
error,log,,,"Error in JSDT Core during AST creation",1454559097682
executed,command,org.eclipse.ui,3.6.0.I20100603-1100,"org.eclipse.ui.edit.paste",1454559099262
error,log,,,"Exception occurred during problem detection:\n----------------------------------- SOURCE BEGIN -------------------------------------\n<html>\n\t<head>\n\t\t<script type=""text/javascript"" src=""d3/d3.min.js""></script>\n\t\t<script src=""//code.jquery.com/jquery-1.10.2.js""></script>\n\t\t<script src=""//code.jquery.com/ui/1.11.2/jquery-ui.js""></script>\n\t</head>\n\t\n\t<body>\n\t\t<div class = ""top-select-variables"">\n\t\t\t\n\t\t</div>\n\t\t\n\t\t<svg id = canvas></svg>\n\t\n\t</body>\n\n</html>\n----------------------------------- SOURCE END -------------------------------------",1454559100189
error,log,,,"Error in JSDT Core during reconcile",1454559100190
error,log,,,"Problems occurred when invoking code from plug-in: ""org.eclipse.wst.jsdt.ui"".",1454559100191
error,log,,,"Error in JSDT Core during AST creation",1454559100191
executed,command,org.eclipse.ui,3.6.0.I20100603-1100,"org.eclipse.ui.file.save",1454559100646
deactivated,workbench,org.eclipse.ui.workbench,3.6.0.I20100603-1100,"",1454559101439
