what,kind,bundleId,bundleVersion,description,time
activated,editor,org.eclipse.wst.jsdt.ui,1.1.0.v201005200157,"org.eclipse.wst.jsdt.ui.CompilationUnitEditor",1452655431358
deactivated,workbench,org.eclipse.ui.workbench,3.6.0.I20100603-1100,"",1452655432464
activated,view,org.eclipse.ui.views,3.5.0.I20100527-0800,"org.eclipse.ui.views.ContentOutline",1452655437585
activated,workbench,org.eclipse.ui.workbench,3.6.0.I20100603-1100,"",1452655437737
deactivated,workbench,org.eclipse.ui.workbench,3.6.0.I20100603-1100,"",1452655440364
activated,workbench,org.eclipse.ui.workbench,3.6.0.I20100603-1100,"",1452655444077
deactivated,workbench,org.eclipse.ui.workbench,3.6.0.I20100603-1100,"",1452655446234
activated,workbench,org.eclipse.ui.workbench,3.6.0.I20100603-1100,"",1452655449527
activated,editor,org.eclipse.wst.jsdt.ui,1.1.0.v201005200157,"org.eclipse.wst.jsdt.ui.CompilationUnitEditor",1452655451760
executed,command,org.eclipse.ui,3.6.0.I20100603-1100,"org.eclipse.ui.file.save",1452655454842
deactivated,workbench,org.eclipse.ui.workbench,3.6.0.I20100603-1100,"",1452655455279
activated,workbench,org.eclipse.ui.workbench,3.6.0.I20100603-1100,"",1452655460403
deactivated,workbench,org.eclipse.ui.workbench,3.6.0.I20100603-1100,"",1452655465687
activated,workbench,org.eclipse.ui.workbench,3.6.0.I20100603-1100,"",1452655472686
activated,editor,org.eclipse.wst.html.ui,1.0.500.v201006030742,"org.eclipse.wst.html.core.htmlsource.source",1452655476410
activated,editor,org.eclipse.wst.jsdt.ui,1.1.0.v201005200157,"org.eclipse.wst.jsdt.ui.CompilationUnitEditor",1452655478454
activated,editor,org.eclipse.wst.html.ui,1.0.500.v201006030742,"org.eclipse.wst.html.core.htmlsource.source",1452655479049
activated,editor,org.eclipse.wst.jsdt.ui,1.1.0.v201005200157,"org.eclipse.wst.jsdt.ui.CompilationUnitEditor",1452655492091
deactivated,workbench,org.eclipse.ui.workbench,3.6.0.I20100603-1100,"",1452655503071
activated,workbench,org.eclipse.ui.workbench,3.6.0.I20100603-1100,"",1452655514184
executed,command,org.eclipse.ui,3.6.0.I20100603-1100,"org.eclipse.ui.file.save",1452655516099
deactivated,workbench,org.eclipse.ui.workbench,3.6.0.I20100603-1100,"",1452655516737
activated,workbench,org.eclipse.ui.workbench,3.6.0.I20100603-1100,"",1452655521575
activated,editor,org.eclipse.wst.html.ui,1.0.500.v201006030742,"org.eclipse.wst.html.core.htmlsource.source",1452655525162
executed,command,org.eclipse.ui,3.6.0.I20100603-1100,"org.eclipse.ui.file.save",1452655525587
deactivated,workbench,org.eclipse.ui.workbench,3.6.0.I20100603-1100,"",1452655526248
activated,workbench,org.eclipse.ui.workbench,3.6.0.I20100603-1100,"",1452655529822
activated,editor,org.eclipse.wst.jsdt.ui,1.1.0.v201005200157,"org.eclipse.wst.jsdt.ui.CompilationUnitEditor",1452655532687
error,log,,,"Problems occurred when invoking code from plug-in: ""org.eclipse.wst.jsdt.ui"".",1452655532795
error,log,,,"Error in JSDT Core during AST creation",1452655532796
activated,editor,org.eclipse.wst.jsdt.ui,1.1.0.v201005200157,"org.eclipse.wst.jsdt.ui.CompilationUnitEditor",1452655535091
activated,editor,org.eclipse.wst.html.ui,1.0.500.v201006030742,"org.eclipse.wst.html.core.htmlsource.source",1452655536026
activated,editor,org.eclipse.wst.jsdt.ui,1.1.0.v201005200157,"org.eclipse.wst.jsdt.ui.CompilationUnitEditor",1452655552744
executed,command,org.eclipse.ui,3.6.0.I20100603-1100,"org.eclipse.ui.edit.undo",1452655553310
executed,command,org.eclipse.ui,3.6.0.I20100603-1100,"org.eclipse.ui.edit.undo",1452655553542
executed,command,org.eclipse.ui,3.6.0.I20100603-1100,"org.eclipse.ui.edit.undo",1452655554050
executed,command,org.eclipse.ui,3.6.0.I20100603-1100,"org.eclipse.ui.edit.undo",1452655554130
executed,command,org.eclipse.ui,3.6.0.I20100603-1100,"org.eclipse.ui.edit.undo",1452655554222
executed,command,org.eclipse.ui,3.6.0.I20100603-1100,"org.eclipse.ui.edit.undo",1452655554296
executed,command,org.eclipse.ui,3.6.0.I20100603-1100,"org.eclipse.ui.edit.undo",1452655554383
executed,command,org.eclipse.ui,3.6.0.I20100603-1100,"org.eclipse.ui.edit.undo",1452655554472
executed,command,org.eclipse.ui,3.6.0.I20100603-1100,"org.eclipse.ui.edit.undo",1452655554550
executed,command,org.eclipse.ui,3.6.0.I20100603-1100,"org.eclipse.ui.edit.undo",1452655554633
executed,command,org.eclipse.ui,3.6.0.I20100603-1100,"org.eclipse.ui.edit.undo",1452655554716
executed,command,org.eclipse.ui,3.6.0.I20100603-1100,"org.eclipse.ui.edit.undo",1452655554801
executed,command,org.eclipse.ui,3.6.0.I20100603-1100,"org.eclipse.ui.edit.undo",1452655554887
executed,command,org.eclipse.ui,3.6.0.I20100603-1100,"org.eclipse.ui.edit.undo",1452655554970
executed,command,org.eclipse.ui,3.6.0.I20100603-1100,"org.eclipse.ui.edit.undo",1452655555058
executed,command,org.eclipse.ui,3.6.0.I20100603-1100,"org.eclipse.ui.edit.undo",1452655555138
executed,command,org.eclipse.ui,3.6.0.I20100603-1100,"org.eclipse.ui.edit.undo",1452655555242
executed,command,org.eclipse.ui,3.6.0.I20100603-1100,"org.eclipse.ui.edit.undo",1452655555308
executed,command,org.eclipse.ui,3.6.0.I20100603-1100,"org.eclipse.ui.edit.undo",1452655555391
executed,command,org.eclipse.ui,3.6.0.I20100603-1100,"org.eclipse.ui.edit.undo",1452655555475
executed,command,org.eclipse.ui,3.6.0.I20100603-1100,"org.eclipse.ui.edit.undo",1452655555814
executed,command,org.eclipse.ui,3.6.0.I20100603-1100,"org.eclipse.ui.edit.undo",1452655556018
executed,command,org.eclipse.ui,3.6.0.I20100603-1100,"org.eclipse.ui.edit.undo",1452655556209
executed,command,org.eclipse.ui,3.6.0.I20100603-1100,"org.eclipse.ui.edit.undo",1452655556568
activated,editor,org.eclipse.wst.html.ui,1.0.500.v201006030742,"org.eclipse.wst.html.core.htmlsource.source",1452655558492
executed,command,org.eclipse.ui,3.6.0.I20100603-1100,"org.eclipse.ui.file.save",1452655568576
deactivated,workbench,org.eclipse.ui.workbench,3.6.0.I20100603-1100,"",1452655569642
activated,workbench,org.eclipse.ui.workbench,3.6.0.I20100603-1100,"",1452655571563
activated,editor,org.eclipse.wst.jsdt.ui,1.1.0.v201005200157,"org.eclipse.wst.jsdt.ui.CompilationUnitEditor",1452655572875
executed,command,org.eclipse.ui,3.6.0.I20100603-1100,"org.eclipse.ui.file.save",1452655573706
deactivated,workbench,org.eclipse.ui.workbench,3.6.0.I20100603-1100,"",1452655577930
activated,workbench,org.eclipse.ui.workbench,3.6.0.I20100603-1100,"",1452655580507
executed,command,org.eclipse.ui,3.6.0.I20100603-1100,"org.eclipse.ui.file.save",1452655588682
deactivated,workbench,org.eclipse.ui.workbench,3.6.0.I20100603-1100,"",1452655589843
activated,view,org.eclipse.ui.views,3.5.0.I20100527-0800,"org.eclipse.ui.views.ContentOutline",1452655660789
activated,workbench,org.eclipse.ui.workbench,3.6.0.I20100603-1100,"",1452655660954
activated,editor,org.eclipse.wst.html.ui,1.0.500.v201006030742,"org.eclipse.wst.html.core.htmlsource.source",1452655663401
activated,editor,org.eclipse.wst.html.ui,1.0.500.v201006030742,"org.eclipse.wst.html.core.htmlsource.source",1452655665347
activated,editor,org.eclipse.wst.jsdt.ui,1.1.0.v201005200157,"org.eclipse.wst.jsdt.ui.CompilationUnitEditor",1452655672077
deactivated,workbench,org.eclipse.ui.workbench,3.6.0.I20100603-1100,"",1452655676367
activated,workbench,org.eclipse.ui.workbench,3.6.0.I20100603-1100,"",1452655697230
executed,command,org.eclipse.ui,3.6.0.I20100603-1100,"org.eclipse.ui.edit.paste",1452655697969
executed,command,org.eclipse.ui,3.6.0.I20100603-1100,"org.eclipse.ui.edit.copy",1452655717430
executed,command,org.eclipse.ui,3.6.0.I20100603-1100,"org.eclipse.ui.edit.paste",1452655719314
executed,command,org.eclipse.ui,3.6.0.I20100603-1100,"org.eclipse.ui.file.save",1452655720742
deactivated,workbench,org.eclipse.ui.workbench,3.6.0.I20100603-1100,"",1452655721341
activated,view,org.eclipse.ui.views,3.5.0.I20100527-0800,"org.eclipse.ui.views.ContentOutline",1452655731345
activated,workbench,org.eclipse.ui.workbench,3.6.0.I20100603-1100,"",1452655731531
activated,editor,org.eclipse.wst.html.ui,1.0.500.v201006030742,"org.eclipse.wst.html.core.htmlsource.source",1452655733022
executed,command,org.eclipse.ui,3.6.0.I20100603-1100,"org.eclipse.ui.file.save",1452655733495
deactivated,workbench,org.eclipse.ui.workbench,3.6.0.I20100603-1100,"",1452655734204
activated,workbench,org.eclipse.ui.workbench,3.6.0.I20100603-1100,"",1452655759412
executed,command,org.eclipse.ui,3.6.0.I20100603-1100,"org.eclipse.ui.edit.copy",1452655768358
executed,command,org.eclipse.ui,3.6.0.I20100603-1100,"org.eclipse.ui.edit.paste",1452655769491
deactivated,workbench,org.eclipse.ui.workbench,3.6.0.I20100603-1100,"",1452655775273
activated,workbench,org.eclipse.ui.workbench,3.6.0.I20100603-1100,"",1452655777219
deactivated,workbench,org.eclipse.ui.workbench,3.6.0.I20100603-1100,"",1452655780706
activated,workbench,org.eclipse.ui.workbench,3.6.0.I20100603-1100,"",1452655783106
opened,editor,org.eclipse.wst.html.ui,1.0.500.v201006030742,"org.eclipse.wst.html.core.htmlsource.source",1452655783178
activated,editor,org.eclipse.wst.html.ui,1.0.500.v201006030742,"org.eclipse.wst.html.core.htmlsource.source",1452655783195
executed,command,org.eclipse.ui.ide,3.6.0.I20100601-0800,"org.eclipse.ui.edit.text.openLocalFile",1452655783198
activated,editor,org.eclipse.wst.html.ui,1.0.500.v201006030742,"org.eclipse.wst.html.core.htmlsource.source",1452655793374
activated,editor,org.eclipse.wst.html.ui,1.0.500.v201006030742,"org.eclipse.wst.html.core.htmlsource.source",1452655794879
executed,command,org.eclipse.ui,3.6.0.I20100603-1100,"org.eclipse.ui.edit.copy",1452655799066
activated,editor,org.eclipse.wst.html.ui,1.0.500.v201006030742,"org.eclipse.wst.html.core.htmlsource.source",1452655799689
executed,command,org.eclipse.ui,3.6.0.I20100603-1100,"org.eclipse.ui.file.save",1452655818328
deactivated,workbench,org.eclipse.ui.workbench,3.6.0.I20100603-1100,"",1452655819622
activated,workbench,org.eclipse.ui.workbench,3.6.0.I20100603-1100,"",1452655845630
activated,editor,org.eclipse.wst.jsdt.ui,1.1.0.v201005200157,"org.eclipse.wst.jsdt.ui.CompilationUnitEditor",1452655849000
error,log,,,"Problems occurred when invoking code from plug-in: ""org.eclipse.wst.jsdt.ui"".",1452655849109
error,log,,,"Error in JSDT Core during AST creation",1452655849110
activated,editor,org.eclipse.wst.html.ui,1.0.500.v201006030742,"org.eclipse.wst.html.core.htmlsource.source",1452655850473
activated,editor,org.eclipse.wst.html.ui,1.0.500.v201006030742,"org.eclipse.wst.html.core.htmlsource.source",1452655852728
executed,command,org.eclipse.ui,3.6.0.I20100603-1100,"org.eclipse.ui.file.save",1452655856770
deactivated,workbench,org.eclipse.ui.workbench,3.6.0.I20100603-1100,"",1452655857429
activated,workbench,org.eclipse.ui.workbench,3.6.0.I20100603-1100,"",1452655867279
executed,command,org.eclipse.ui,3.6.0.I20100603-1100,"org.eclipse.ui.file.save",1452655880426
deactivated,workbench,org.eclipse.ui.workbench,3.6.0.I20100603-1100,"",1452655881318
activated,workbench,org.eclipse.ui.workbench,3.6.0.I20100603-1100,"",1452655888171
activated,editor,org.eclipse.wst.jsdt.ui,1.1.0.v201005200157,"org.eclipse.wst.jsdt.ui.CompilationUnitEditor",1452655889200
deactivated,workbench,org.eclipse.ui.workbench,3.6.0.I20100603-1100,"",1452655894660
activated,workbench,org.eclipse.ui.workbench,3.6.0.I20100603-1100,"",1452655909873
deactivated,workbench,org.eclipse.ui.workbench,3.6.0.I20100603-1100,"",1452655915550
activated,workbench,org.eclipse.ui.workbench,3.6.0.I20100603-1100,"",1452656053995
executed,command,org.eclipse.ui,3.6.0.I20100603-1100,"org.eclipse.ui.edit.copy",1452656057074
executed,command,org.eclipse.ui,3.6.0.I20100603-1100,"org.eclipse.ui.edit.paste",1452656058314
executed,command,org.eclipse.ui,3.6.0.I20100603-1100,"org.eclipse.ui.edit.paste",1452656060714
executed,command,org.eclipse.ui,3.6.0.I20100603-1100,"org.eclipse.ui.edit.paste",1452656062512
deactivated,workbench,org.eclipse.ui.workbench,3.6.0.I20100603-1100,"",1452656071714
activated,workbench,org.eclipse.ui.workbench,3.6.0.I20100603-1100,"",1452656075602
executed,command,org.eclipse.ui,3.6.0.I20100603-1100,"org.eclipse.ui.edit.copy",1452656083179
executed,command,org.eclipse.ui,3.6.0.I20100603-1100,"org.eclipse.ui.edit.paste",1452656083962
executed,command,org.eclipse.ui,3.6.0.I20100603-1100,"org.eclipse.ui.edit.paste",1452656084218
executed,command,org.eclipse.ui,3.6.0.I20100603-1100,"org.eclipse.ui.edit.paste",1452656084762
executed,command,org.eclipse.ui,3.6.0.I20100603-1100,"org.eclipse.ui.edit.copy",1452656113628
executed,command,org.eclipse.ui,3.6.0.I20100603-1100,"org.eclipse.ui.edit.paste",1452656114911
executed,command,org.eclipse.ui,3.6.0.I20100603-1100,"org.eclipse.ui.edit.paste",1452656116869
executed,command,org.eclipse.ui,3.6.0.I20100603-1100,"org.eclipse.ui.edit.copy",1452656119620
executed,command,org.eclipse.ui,3.6.0.I20100603-1100,"org.eclipse.ui.edit.paste",1452656121158
executed,command,org.eclipse.ui,3.6.0.I20100603-1100,"org.eclipse.ui.edit.paste",1452656122806
executed,command,org.eclipse.ui,3.6.0.I20100603-1100,"org.eclipse.ui.file.save",1452656133757
deactivated,workbench,org.eclipse.ui.workbench,3.6.0.I20100603-1100,"",1452656134369
activated,workbench,org.eclipse.ui.workbench,3.6.0.I20100603-1100,"",1452656161601
executed,command,org.eclipse.ui,3.6.0.I20100603-1100,"org.eclipse.ui.edit.copy",1452656206758
executed,command,org.eclipse.ui,3.6.0.I20100603-1100,"org.eclipse.ui.edit.paste",1452656207517
executed,command,org.eclipse.ui,3.6.0.I20100603-1100,"org.eclipse.ui.edit.copy",1452656218231
executed,command,org.eclipse.ui,3.6.0.I20100603-1100,"org.eclipse.ui.edit.paste",1452656219693
executed,command,org.eclipse.ui,3.6.0.I20100603-1100,"org.eclipse.ui.edit.copy",1452656224831
executed,command,org.eclipse.ui,3.6.0.I20100603-1100,"org.eclipse.ui.edit.paste",1452656231341
executed,command,org.eclipse.ui,3.6.0.I20100603-1100,"org.eclipse.ui.edit.copy",1452656232775
executed,command,org.eclipse.ui,3.6.0.I20100603-1100,"org.eclipse.ui.edit.paste",1452656233898
executed,command,org.eclipse.ui,3.6.0.I20100603-1100,"org.eclipse.ui.edit.paste",1452656234882
executed,command,org.eclipse.ui,3.6.0.I20100603-1100,"org.eclipse.ui.edit.paste",1452656238395
executed,command,org.eclipse.ui,3.6.0.I20100603-1100,"org.eclipse.ui.edit.paste",1452656239553
executed,command,org.eclipse.ui,3.6.0.I20100603-1100,"org.eclipse.ui.edit.paste",1452656241329
executed,command,org.eclipse.ui,3.6.0.I20100603-1100,"org.eclipse.ui.edit.copy",1452656244623
executed,command,org.eclipse.ui,3.6.0.I20100603-1100,"org.eclipse.ui.edit.paste",1452656245857
executed,command,org.eclipse.ui,3.6.0.I20100603-1100,"org.eclipse.ui.edit.copy",1452656249879
executed,command,org.eclipse.ui,3.6.0.I20100603-1100,"org.eclipse.ui.edit.paste",1452656250754
executed,command,org.eclipse.ui,3.6.0.I20100603-1100,"org.eclipse.ui.edit.paste",1452656251833
executed,command,org.eclipse.ui,3.6.0.I20100603-1100,"org.eclipse.ui.edit.paste",1452656252761
executed,command,org.eclipse.ui,3.6.0.I20100603-1100,"org.eclipse.ui.edit.paste",1452656253737
executed,command,org.eclipse.ui,3.6.0.I20100603-1100,"org.eclipse.ui.edit.paste",1452656254731
executed,command,org.eclipse.ui,3.6.0.I20100603-1100,"org.eclipse.ui.edit.paste",1452656255755
executed,command,org.eclipse.ui,3.6.0.I20100603-1100,"org.eclipse.ui.edit.copy",1452656263784
executed,command,org.eclipse.ui,3.6.0.I20100603-1100,"org.eclipse.ui.edit.paste",1452656264548
executed,command,org.eclipse.ui,3.6.0.I20100603-1100,"org.eclipse.ui.edit.copy",1452656272816
executed,command,org.eclipse.ui,3.6.0.I20100603-1100,"org.eclipse.ui.edit.paste",1452656275522
executed,command,org.eclipse.ui,3.6.0.I20100603-1100,"org.eclipse.ui.edit.paste",1452656276890
executed,command,org.eclipse.ui,3.6.0.I20100603-1100,"org.eclipse.ui.edit.paste",1452656278596
executed,command,org.eclipse.ui,3.6.0.I20100603-1100,"org.eclipse.ui.edit.paste",1452656279594
executed,command,org.eclipse.ui,3.6.0.I20100603-1100,"org.eclipse.ui.file.save",1452656287511
deactivated,workbench,org.eclipse.ui.workbench,3.6.0.I20100603-1100,"",1452656288262
activated,workbench,org.eclipse.ui.workbench,3.6.0.I20100603-1100,"",1452656296132
deactivated,workbench,org.eclipse.ui.workbench,3.6.0.I20100603-1100,"",1452656298836
activated,view,org.eclipse.ui.views,3.5.0.I20100527-0800,"org.eclipse.ui.views.ContentOutline",1452656306061
activated,workbench,org.eclipse.ui.workbench,3.6.0.I20100603-1100,"",1452656306223
activated,editor,org.eclipse.wst.jsdt.ui,1.1.0.v201005200157,"org.eclipse.wst.jsdt.ui.CompilationUnitEditor",1452656307402
executed,command,org.eclipse.ui,3.6.0.I20100603-1100,"org.eclipse.ui.edit.copy",1452656308737
executed,command,org.eclipse.ui,3.6.0.I20100603-1100,"org.eclipse.ui.edit.paste",1452656312701
executed,command,org.eclipse.ui,3.6.0.I20100603-1100,"org.eclipse.ui.file.save",1452656313961
deactivated,workbench,org.eclipse.ui.workbench,3.6.0.I20100603-1100,"",1452656314341
activated,view,org.eclipse.ui.views,3.5.0.I20100527-0800,"org.eclipse.ui.views.ContentOutline",1452656453796
activated,workbench,org.eclipse.ui.workbench,3.6.0.I20100603-1100,"",1452656453993
activated,editor,org.eclipse.wst.jsdt.ui,1.1.0.v201005200157,"org.eclipse.wst.jsdt.ui.CompilationUnitEditor",1452656455559
executed,command,org.eclipse.ui,3.6.0.I20100603-1100,"org.eclipse.ui.edit.copy",1452656457997
executed,command,org.eclipse.ui,3.6.0.I20100603-1100,"org.eclipse.ui.edit.paste",1452656462360
executed,command,org.eclipse.ui,3.6.0.I20100603-1100,"org.eclipse.ui.edit.paste",1452656468264
executed,command,org.eclipse.ui,3.6.0.I20100603-1100,"org.eclipse.ui.file.save",1452656474566
deactivated,workbench,org.eclipse.ui.workbench,3.6.0.I20100603-1100,"",1452656475178
activated,view,org.eclipse.ui.views,3.5.0.I20100527-0800,"org.eclipse.ui.views.ContentOutline",1452656488509
activated,workbench,org.eclipse.ui.workbench,3.6.0.I20100603-1100,"",1452656488645
activated,editor,org.eclipse.wst.jsdt.ui,1.1.0.v201005200157,"org.eclipse.wst.jsdt.ui.CompilationUnitEditor",1452656489989
executed,command,org.eclipse.ui,3.6.0.I20100603-1100,"org.eclipse.ui.edit.copy",1452656491574
executed,command,org.eclipse.ui,3.6.0.I20100603-1100,"org.eclipse.ui.edit.paste",1452656496626
executed,command,org.eclipse.ui,3.6.0.I20100603-1100,"org.eclipse.ui.file.save",1452656506046
deactivated,workbench,org.eclipse.ui.workbench,3.6.0.I20100603-1100,"",1452656506656
activated,workbench,org.eclipse.ui.workbench,3.6.0.I20100603-1100,"",1452695571113
deactivated,workbench,org.eclipse.ui.workbench,3.6.0.I20100603-1100,"",1452695573079
activated,workbench,org.eclipse.ui.workbench,3.6.0.I20100603-1100,"",1452695703543
deactivated,workbench,org.eclipse.ui.workbench,3.6.0.I20100603-1100,"",1452695705322
activated,workbench,org.eclipse.ui.workbench,3.6.0.I20100603-1100,"",1452695736008
deactivated,workbench,org.eclipse.ui.workbench,3.6.0.I20100603-1100,"",1452695736859
activated,workbench,org.eclipse.ui.workbench,3.6.0.I20100603-1100,"",1452696293909
deactivated,workbench,org.eclipse.ui.workbench,3.6.0.I20100603-1100,"",1452696296300
activated,workbench,org.eclipse.ui.workbench,3.6.0.I20100603-1100,"",1452696311168
deactivated,workbench,org.eclipse.ui.workbench,3.6.0.I20100603-1100,"",1452696315786
activated,workbench,org.eclipse.ui.workbench,3.6.0.I20100603-1100,"",1452696510045
deactivated,workbench,org.eclipse.ui.workbench,3.6.0.I20100603-1100,"",1452696511106
activated,workbench,org.eclipse.ui.workbench,3.6.0.I20100603-1100,"",1452696530725
executed,command,org.eclipse.ui,3.6.0.I20100603-1100,"org.eclipse.ui.file.save",1452696535673
deactivated,workbench,org.eclipse.ui.workbench,3.6.0.I20100603-1100,"",1452696536768
activated,workbench,org.eclipse.ui.workbench,3.6.0.I20100603-1100,"",1452697571983
deactivated,workbench,org.eclipse.ui.workbench,3.6.0.I20100603-1100,"",1452697577140
activated,workbench,org.eclipse.ui.workbench,3.6.0.I20100603-1100,"",1452700416417
activated,editor,org.eclipse.wst.html.ui,1.0.500.v201006030742,"org.eclipse.wst.html.core.htmlsource.source",1452700422087
executed,command,org.eclipse.ui,3.6.0.I20100603-1100,"org.eclipse.ui.edit.copy",1452700441754
activated,editor,org.eclipse.wst.jsdt.ui,1.1.0.v201005200157,"org.eclipse.wst.jsdt.ui.CompilationUnitEditor",1452700442535
executed,command,org.eclipse.ui,3.6.0.I20100603-1100,"org.eclipse.ui.edit.paste",1452700447027
executed,command,org.eclipse.ui,3.6.0.I20100603-1100,"org.eclipse.ui.file.save",1452700451885
activated,editor,org.eclipse.wst.html.ui,1.0.500.v201006030742,"org.eclipse.wst.html.core.htmlsource.source",1452700453863
deactivated,workbench,org.eclipse.ui.workbench,3.6.0.I20100603-1100,"",1452700474461
activated,view,org.eclipse.ui.navigator.resources,3.4.200.I20100601-0800,"org.eclipse.ui.navigator.ProjectExplorer",1452700476194
activated,workbench,org.eclipse.ui.workbench,3.6.0.I20100603-1100,"",1452700476343
deactivated,workbench,org.eclipse.ui.workbench,3.6.0.I20100603-1100,"",1452700479475
activated,workbench,org.eclipse.ui.workbench,3.6.0.I20100603-1100,"",1452700495356
activated,editor,org.eclipse.wst.html.ui,1.0.500.v201006030742,"org.eclipse.wst.html.core.htmlsource.source",1452700497255
deactivated,workbench,org.eclipse.ui.workbench,3.6.0.I20100603-1100,"",1452700498278
activated,workbench,org.eclipse.ui.workbench,3.6.0.I20100603-1100,"",1452700532671
deactivated,workbench,org.eclipse.ui.workbench,3.6.0.I20100603-1100,"",1452700543818
activated,workbench,org.eclipse.ui.workbench,3.6.0.I20100603-1100,"",1452700552882
activated,editor,org.eclipse.wst.jsdt.ui,1.1.0.v201005200157,"org.eclipse.wst.jsdt.ui.CompilationUnitEditor",1452700555413
closed,editor,org.eclipse.wst.jsdt.ui,1.1.0.v201005200157,"org.eclipse.wst.jsdt.ui.CompilationUnitEditor",1452700558364
error,log,,,"Exception occurred during problem detection:\n----------------------------------- SOURCE BEGIN -------------------------------------\n<html>\n\t<head>\n\t\t<script type=""text/javascript"" src=""d3/d3.min.js""></script>\n\t\t<script src=""//code.jquery.com/jquery-1.10.2.js""></script>\n\t\t<script src=""//code.jquery.com/ui/1.11.2/jquery-ui.js""></script>\n\t</head>\n\t\n\t<body>\n\t\t<div class = ""top-select-variables"">\n\t\t\t\n\t\t</div>\n\t\t\n\t\t<svg id = canvas></svg>\n\t\n\t</body>\n\n</html>\n----------------------------------- SOURCE END -------------------------------------",1452700559108
error,log,,,"Error in JSDT Core during reconcile",1452700559109
activated,editor,org.eclipse.wst.css.ui,1.0.500.v201004290328,"org.eclipse.wst.css.core.csssource.source",1452700560886
executed,command,org.eclipse.ui,3.6.0.I20100603-1100,"org.eclipse.ui.edit.copy",1452700578979
executed,command,org.eclipse.ui,3.6.0.I20100603-1100,"org.eclipse.ui.edit.paste",1452700581686
executed,command,org.eclipse.ui,3.6.0.I20100603-1100,"org.eclipse.ui.file.save",1452700582398
deactivated,workbench,org.eclipse.ui.workbench,3.6.0.I20100603-1100,"",1452700583148
activated,workbench,org.eclipse.ui.workbench,3.6.0.I20100603-1100,"",1452700592240
activated,editor,org.eclipse.wst.html.ui,1.0.500.v201006030742,"org.eclipse.wst.html.core.htmlsource.source",1452700595883
executed,command,org.eclipse.ui,3.6.0.I20100603-1100,"org.eclipse.ui.file.save",1452700596462
deactivated,workbench,org.eclipse.ui.workbench,3.6.0.I20100603-1100,"",1452700597212
activated,workbench,org.eclipse.ui.workbench,3.6.0.I20100603-1100,"",1452700603346
deactivated,workbench,org.eclipse.ui.workbench,3.6.0.I20100603-1100,"",1452700613681
activated,workbench,org.eclipse.ui.workbench,3.6.0.I20100603-1100,"",1452700620629
deactivated,workbench,org.eclipse.ui.workbench,3.6.0.I20100603-1100,"",1452700626922
activated,workbench,org.eclipse.ui.workbench,3.6.0.I20100603-1100,"",1452700672438
activated,editor,org.eclipse.wst.css.ui,1.0.500.v201004290328,"org.eclipse.wst.css.core.csssource.source",1452700674818
executed,command,org.eclipse.ui,3.6.0.I20100603-1100,"org.eclipse.ui.file.save",1452700685360
deactivated,workbench,org.eclipse.ui.workbench,3.6.0.I20100603-1100,"",1452700685962
activated,workbench,org.eclipse.ui.workbench,3.6.0.I20100603-1100,"",1452700692037
activated,editor,org.eclipse.wst.html.ui,1.0.500.v201006030742,"org.eclipse.wst.html.core.htmlsource.source",1452700695148
executed,command,org.eclipse.ui,3.6.0.I20100603-1100,"org.eclipse.ui.file.save",1452700702352
deactivated,workbench,org.eclipse.ui.workbench,3.6.0.I20100603-1100,"",1452700702957
activated,workbench,org.eclipse.ui.workbench,3.6.0.I20100603-1100,"",1452700711549
executed,command,org.eclipse.ui,3.6.0.I20100603-1100,"org.eclipse.ui.edit.undo",1452700713526
executed,command,org.eclipse.ui,3.6.0.I20100603-1100,"org.eclipse.ui.edit.undo",1452700717804
executed,command,org.eclipse.ui,3.6.0.I20100603-1100,"org.eclipse.ui.edit.redo",1452700720842
executed,command,org.eclipse.ui,3.6.0.I20100603-1100,"org.eclipse.ui.edit.redo",1452700721276
executed,command,org.eclipse.ui,3.6.0.I20100603-1100,"org.eclipse.ui.file.save",1452700722078
activated,editor,org.eclipse.wst.css.ui,1.0.500.v201004290328,"org.eclipse.wst.css.core.csssource.source",1452700722841
executed,command,org.eclipse.ui,3.6.0.I20100603-1100,"org.eclipse.ui.edit.copy",1452700733695
executed,command,org.eclipse.ui,3.6.0.I20100603-1100,"org.eclipse.ui.edit.paste",1452700734474
executed,command,org.eclipse.ui,3.6.0.I20100603-1100,"org.eclipse.ui.file.save",1452700738200
deactivated,workbench,org.eclipse.ui.workbench,3.6.0.I20100603-1100,"",1452700738671
activated,view,org.eclipse.ui.ide,3.6.0.I20100601-0800,"org.eclipse.ui.views.ProblemView",1452700741635
activated,workbench,org.eclipse.ui.workbench,3.6.0.I20100603-1100,"",1452700741769
activated,editor,org.eclipse.wst.css.ui,1.0.500.v201004290328,"org.eclipse.wst.css.core.csssource.source",1452700752811
executed,command,org.eclipse.ui,3.6.0.I20100603-1100,"org.eclipse.ui.edit.undo",1452700756274
executed,command,org.eclipse.ui,3.6.0.I20100603-1100,"org.eclipse.ui.edit.undo",1452700756842
executed,command,org.eclipse.ui,3.6.0.I20100603-1100,"org.eclipse.ui.file.save",1452700764521
deactivated,workbench,org.eclipse.ui.workbench,3.6.0.I20100603-1100,"",1452700764868
activated,workbench,org.eclipse.ui.workbench,3.6.0.I20100603-1100,"",1452700768547
executed,command,org.eclipse.ui,3.6.0.I20100603-1100,"org.eclipse.ui.file.save",1452700777881
deactivated,workbench,org.eclipse.ui.workbench,3.6.0.I20100603-1100,"",1452700778457
activated,workbench,org.eclipse.ui.workbench,3.6.0.I20100603-1100,"",1452700781319
executed,command,org.eclipse.ui,3.6.0.I20100603-1100,"org.eclipse.ui.file.save",1452700784810
deactivated,workbench,org.eclipse.ui.workbench,3.6.0.I20100603-1100,"",1452700785389
activated,workbench,org.eclipse.ui.workbench,3.6.0.I20100603-1100,"",1452700790964
executed,command,org.eclipse.ui,3.6.0.I20100603-1100,"org.eclipse.ui.file.save",1452700800345
