what,kind,bundleId,bundleVersion,description,time
error,log,,,"Unhandled event loop exception",1454529057328
executed,command,org.eclipse.ui,3.6.0.I20100603-1100,"org.eclipse.ui.edit.undo",1454529057357
error,log,,,"Unhandled event loop exception",1454529057381
error,log,,,"Unhandled event loop exception",1454529057400
executed,command,org.eclipse.ui,3.6.0.I20100603-1100,"org.eclipse.ui.edit.undo",1454529057741
executed,command,org.eclipse.ui,3.6.0.I20100603-1100,"org.eclipse.ui.edit.undo",1454529058349
error,log,,,"Unhandled event loop exception",1454529058985
error,log,,,"Unhandled event loop exception",1454529059002
error,log,,,"Unhandled event loop exception",1454529059152
error,log,,,"Unhandled event loop exception",1454529059170
error,log,,,"Exception occurred during problem detection:\n----------------------------------- SOURCE BEGIN -------------------------------------\n<html>\n\t<head>\n\t\t<script type=""text/javascript"" src=""d3/d3.min.js""></script>\n\t\t<script src=""//code.jquery.com/jquery-1.10.2.js""></script>\n\t\t<script src=""//code.jquery.com/ui/1.11.2/jquery-ui.js""></script>\n\t</head>\n\t\n\t<body>\n\t\t<div class = ""top-select-variables"">\n\t\t\t\n\t\t</div>\n\t\t\n\t\t<svg id = canvas></svg>\n\t\n\t</body>\n\n</html>\n----------------------------------- SOURCE END -------------------------------------",1454529059188
error,log,,,"Error in JSDT Core during reconcile",1454529059189
error,log,,,"Problems occurred when invoking code from plug-in: ""org.eclipse.wst.jsdt.ui"".",1454529059190
error,log,,,"Error in JSDT Core during AST creation",1454529059190
error,log,,,"Unhandled event loop exception",1454529059215
error,log,,,"Unhandled event loop exception",1454529059231
error,log,,,"Unhandled event loop exception",1454529059249
error,log,,,"Unhandled event loop exception",1454529059265
error,log,,,"Exception occurred during problem detection:\n----------------------------------- SOURCE BEGIN -------------------------------------\n<html>\n\t<head>\n\t\t<script type=""text/javascript"" src=""d3/d3.min.js""></script>\n\t\t<script src=""//code.jquery.com/jquery-1.10.2.js""></script>\n\t\t<script src=""//code.jquery.com/ui/1.11.2/jquery-ui.js""></script>\n\t</head>\n\t\n\t<body>\n\t\t<div class = ""top-select-variables"">\n\t\t\t\n\t\t</div>\n\t\t\n\t\t<svg id = canvas></svg>\n\t\n\t</body>\n\n</html>\n----------------------------------- SOURCE END -------------------------------------",1454529063701
error,log,,,"Error in JSDT Core during reconcile",1454529063702
error,log,,,"Problems occurred when invoking code from plug-in: ""org.eclipse.wst.jsdt.ui"".",1454529063703
error,log,,,"Error in JSDT Core during AST creation",1454529063703
executed,command,org.eclipse.ui,3.6.0.I20100603-1100,"org.eclipse.ui.file.save",1454529065664
activated,editor,org.eclipse.wst.html.ui,1.0.500.v201006030742,"org.eclipse.wst.html.core.htmlsource.source",1454529066645
activated,editor,org.eclipse.wst.css.ui,1.0.500.v201004290328,"org.eclipse.wst.css.core.csssource.source",1454529068179
executed,command,org.eclipse.ui,3.6.0.I20100603-1100,"org.eclipse.ui.edit.undo",1454529069039
executed,command,org.eclipse.ui,3.6.0.I20100603-1100,"org.eclipse.ui.edit.undo",1454529069657
executed,command,org.eclipse.ui,3.6.0.I20100603-1100,"org.eclipse.ui.file.save",1454529075815
deactivated,workbench,org.eclipse.ui.workbench,3.6.0.I20100603-1100,"",1454529076896
activated,workbench,org.eclipse.ui.workbench,3.6.0.I20100603-1100,"",1454529092148
executed,command,org.eclipse.ui,3.6.0.I20100603-1100,"org.eclipse.ui.file.save",1454529096081
deactivated,workbench,org.eclipse.ui.workbench,3.6.0.I20100603-1100,"",1454529096741
activated,workbench,org.eclipse.ui.workbench,3.6.0.I20100603-1100,"",1454529101823
activated,editor,org.eclipse.wst.jsdt.ui,1.1.0.v201005200157,"org.eclipse.wst.jsdt.ui.CompilationUnitEditor",1454529102788
error,log,,,"Problems occurred when invoking code from plug-in: ""org.eclipse.wst.jsdt.ui"".",1454529102893
error,log,,,"Error in JSDT Core during AST creation",1454529102893
error,log,,,"Unexpected runtime error while computing a text hover",1454529105342
activated,editor,org.eclipse.wst.css.ui,1.0.500.v201004290328,"org.eclipse.wst.css.core.csssource.source",1454529107739
activated,editor,org.eclipse.wst.jsdt.ui,1.1.0.v201005200157,"org.eclipse.wst.jsdt.ui.CompilationUnitEditor",1454529110393
error,log,,,"Problems occurred when invoking code from plug-in: ""org.eclipse.wst.jsdt.ui"".",1454529110495
error,log,,,"Error in JSDT Core during AST creation",1454529110495
executed,command,org.eclipse.ui,3.6.0.I20100603-1100,"org.eclipse.ui.file.save",1454529113153
error,log,,,"Exception occurred during problem detection:\n----------------------------------- SOURCE BEGIN -------------------------------------\n<html>\n\t<head>\n\t\t<script type=""text/javascript"" src=""d3/d3.min.js""></script>\n\t\t<script src=""//code.jquery.com/jquery-1.10.2.js""></script>\n\t\t<script src=""//code.jquery.com/ui/1.11.2/jquery-ui.js""></script>\n\t</head>\n\t\n\t<body>\n\t\t<div class = ""top-select-variables"">\n\t\t\t\n\t\t</div>\n\t\t\n\t\t<svg id = canvas></svg>\n\t\n\t</body>\n\n</html>\n----------------------------------- SOURCE END -------------------------------------",1454529113283
error,log,,,"Error in JSDT Core during reconcile",1454529113284
error,log,,,"Problems occurred when invoking code from plug-in: ""org.eclipse.wst.jsdt.ui"".",1454529113426
error,log,,,"Error in JSDT Core during AST creation",1454529113427
deactivated,workbench,org.eclipse.ui.workbench,3.6.0.I20100603-1100,"",1454529113748
activated,workbench,org.eclipse.ui.workbench,3.6.0.I20100603-1100,"",1454529119185
activated,editor,org.eclipse.wst.css.ui,1.0.500.v201004290328,"org.eclipse.wst.css.core.csssource.source",1454529120272
executed,command,org.eclipse.ui,3.6.0.I20100603-1100,"org.eclipse.ui.edit.undo",1454529121013
executed,command,org.eclipse.ui,3.6.0.I20100603-1100,"org.eclipse.ui.file.save",1454529121551
activated,editor,org.eclipse.wst.html.ui,1.0.500.v201006030742,"org.eclipse.wst.html.core.htmlsource.source",1454529135706
activated,editor,org.eclipse.wst.css.ui,1.0.500.v201004290328,"org.eclipse.wst.css.core.csssource.source",1454529142078
deactivated,workbench,org.eclipse.ui.workbench,3.6.0.I20100603-1100,"",1454529155298
activated,workbench,org.eclipse.ui.workbench,3.6.0.I20100603-1100,"",1454529159510
executed,command,org.eclipse.ui,3.6.0.I20100603-1100,"org.eclipse.ui.file.save",1454529176122
deactivated,workbench,org.eclipse.ui.workbench,3.6.0.I20100603-1100,"",1454529176544
activated,workbench,org.eclipse.ui.workbench,3.6.0.I20100603-1100,"",1454529191664
activated,editor,org.eclipse.wst.html.ui,1.0.500.v201006030742,"org.eclipse.wst.html.core.htmlsource.source",1454529203703
activated,editor,org.eclipse.wst.jsdt.ui,1.1.0.v201005200157,"org.eclipse.wst.jsdt.ui.CompilationUnitEditor",1454529206842
error,log,,,"Problems occurred when invoking code from plug-in: ""org.eclipse.wst.jsdt.ui"".",1454529206945
error,log,,,"Error in JSDT Core during AST creation",1454529206945
deactivated,workbench,org.eclipse.ui.workbench,3.6.0.I20100603-1100,"",1454529209091
activated,workbench,org.eclipse.ui.workbench,3.6.0.I20100603-1100,"",1454529226116
activated,editor,org.eclipse.wst.css.ui,1.0.500.v201004290328,"org.eclipse.wst.css.core.csssource.source",1454529227810
deactivated,workbench,org.eclipse.ui.workbench,3.6.0.I20100603-1100,"",1454529243084
activated,workbench,org.eclipse.ui.workbench,3.6.0.I20100603-1100,"",1454529271568
activated,editor,org.eclipse.wst.jsdt.ui,1.1.0.v201005200157,"org.eclipse.wst.jsdt.ui.CompilationUnitEditor",1454529272633
error,log,,,"Problems occurred when invoking code from plug-in: ""org.eclipse.wst.jsdt.ui"".",1454529272743
error,log,,,"Error in JSDT Core during AST creation",1454529272743
error,log,,,"Exception occurred during problem detection:\n----------------------------------- SOURCE BEGIN -------------------------------------\n<html>\n\t<head>\n\t\t<script type=""text/javascript"" src=""d3/d3.min.js""></script>\n\t\t<script src=""//code.jquery.com/jquery-1.10.2.js""></script>\n\t\t<script src=""//code.jquery.com/ui/1.11.2/jquery-ui.js""></script>\n\t</head>\n\t\n\t<body>\n\t\t<div class = ""top-select-variables"">\n\t\t\t\n\t\t</div>\n\t\t\n\t\t<svg id = canvas></svg>\n\t\n\t</body>\n\n</html>\n----------------------------------- SOURCE END -------------------------------------",1454529275092
error,log,,,"Error in JSDT Core during reconcile",1454529275093
error,log,,,"Problems occurred when invoking code from plug-in: ""org.eclipse.wst.jsdt.ui"".",1454529275183
error,log,,,"Error in JSDT Core during AST creation",1454529275183
error,log,,,"Problems occurred when invoking code from plug-in: ""org.eclipse.wst.jsdt.ui"".",1454529277679
error,log,,,"Error in JSDT Core during AST creation",1454529277679
error,log,,,"Unhandled event loop exception",1454529277959
error,log,,,"Unhandled event loop exception",1454529277976
error,log,,,"Unhandled event loop exception",1454529277993
executed,command,org.eclipse.ui,3.6.0.I20100603-1100,"org.eclipse.ui.edit.copy",1454529277998
error,log,,,"Unhandled event loop exception",1454529278010
error,log,,,"Unhandled event loop exception",1454529278028
executed,command,org.eclipse.ui,3.6.0.I20100603-1100,"org.eclipse.ui.edit.paste",1454529278768
error,log,,,"Exception occurred during problem detection:\n----------------------------------- SOURCE BEGIN -------------------------------------\n<html>\n\t<head>\n\t\t<script type=""text/javascript"" src=""d3/d3.min.js""></script>\n\t\t<script src=""//code.jquery.com/jquery-1.10.2.js""></script>\n\t\t<script src=""//code.jquery.com/ui/1.11.2/jquery-ui.js""></script>\n\t</head>\n\t\n\t<body>\n\t\t<div class = ""top-select-variables"">\n\t\t\t\n\t\t</div>\n\t\t\n\t\t<svg id = canvas></svg>\n\t\n\t</body>\n\n</html>\n----------------------------------- SOURCE END -------------------------------------",1454529279604
error,log,,,"Error in JSDT Core during reconcile",1454529279605
error,log,,,"Problems occurred when invoking code from plug-in: ""org.eclipse.wst.jsdt.ui"".",1454529279605
error,log,,,"Error in JSDT Core during AST creation",1454529279606
error,log,,,"Exception occurred during problem detection:\n----------------------------------- SOURCE BEGIN -------------------------------------\n<html>\n\t<head>\n\t\t<script type=""text/javascript"" src=""d3/d3.min.js""></script>\n\t\t<script src=""//code.jquery.com/jquery-1.10.2.js""></script>\n\t\t<script src=""//code.jquery.com/ui/1.11.2/jquery-ui.js""></script>\n\t</head>\n\t\n\t<body>\n\t\t<div class = ""top-select-variables"">\n\t\t\t\n\t\t</div>\n\t\t\n\t\t<svg id = canvas></svg>\n\t\n\t</body>\n\n</html>\n----------------------------------- SOURCE END -------------------------------------",1454529281613
error,log,,,"Error in JSDT Core during reconcile",1454529281614
error,log,,,"Problems occurred when invoking code from plug-in: ""org.eclipse.wst.jsdt.ui"".",1454529281748
error,log,,,"Error in JSDT Core during AST creation",1454529281749
error,log,,,"Exception occurred during problem detection:\n----------------------------------- SOURCE BEGIN -------------------------------------\n<html>\n\t<head>\n\t\t<script type=""text/javascript"" src=""d3/d3.min.js""></script>\n\t\t<script src=""//code.jquery.com/jquery-1.10.2.js""></script>\n\t\t<script src=""//code.jquery.com/ui/1.11.2/jquery-ui.js""></script>\n\t</head>\n\t\n\t<body>\n\t\t<div class = ""top-select-variables"">\n\t\t\t\n\t\t</div>\n\t\t\n\t\t<svg id = canvas></svg>\n\t\n\t</body>\n\n</html>\n----------------------------------- SOURCE END -------------------------------------",1454529283123
error,log,,,"Error in JSDT Core during reconcile",1454529283124
error,log,,,"Problems occurred when invoking code from plug-in: ""org.eclipse.wst.jsdt.ui"".",1454529283125
error,log,,,"Error in JSDT Core during AST creation",1454529283125
executed,command,org.eclipse.ui,3.6.0.I20100603-1100,"org.eclipse.ui.file.save",1454529287813
error,log,,,"Exception occurred during problem detection:\n----------------------------------- SOURCE BEGIN -------------------------------------\n<html>\n\t<head>\n\t\t<script type=""text/javascript"" src=""d3/d3.min.js""></script>\n\t\t<script src=""//code.jquery.com/jquery-1.10.2.js""></script>\n\t\t<script src=""//code.jquery.com/ui/1.11.2/jquery-ui.js""></script>\n\t</head>\n\t\n\t<body>\n\t\t<div class = ""top-select-variables"">\n\t\t\t\n\t\t</div>\n\t\t\n\t\t<svg id = canvas></svg>\n\t\n\t</body>\n\n</html>\n----------------------------------- SOURCE END -------------------------------------",1454529288137
error,log,,,"Error in JSDT Core during reconcile",1454529288138
error,log,,,"Problems occurred when invoking code from plug-in: ""org.eclipse.wst.jsdt.ui"".",1454529288212
error,log,,,"Error in JSDT Core during AST creation",1454529288213
deactivated,workbench,org.eclipse.ui.workbench,3.6.0.I20100603-1100,"",1454529288641
activated,workbench,org.eclipse.ui.workbench,3.6.0.I20100603-1100,"",1454529320245
error,log,,,"Problems occurred when invoking code from plug-in: ""org.eclipse.wst.jsdt.ui"".",1454529330233
error,log,,,"Error in JSDT Core during AST creation",1454529330234
error,log,,,"Unhandled event loop exception",1454529330483
error,log,,,"Unhandled event loop exception",1454529330500
error,log,,,"Unhandled event loop exception",1454529330517
error,log,,,"Unhandled event loop exception",1454529330534
error,log,,,"Unhandled event loop exception",1454529330552
error,log,,,"Unhandled event loop exception",1454529330569
error,log,,,"Unhandled event loop exception",1454529330586
error,log,,,"Unhandled event loop exception",1454529330760
error,log,,,"Unhandled event loop exception",1454529330777
executed,command,org.eclipse.ui,3.6.0.I20100603-1100,"org.eclipse.ui.edit.copy",1454529330790
error,log,,,"Unhandled event loop exception",1454529330794
error,log,,,"Unhandled event loop exception",1454529330812
error,log,,,"Unhandled event loop exception",1454529330829
error,log,,,"Unhandled event loop exception",1454529330870
error,log,,,"Unhandled event loop exception",1454529330895
error,log,,,"Unhandled event loop exception",1454529330919
error,log,,,"Unhandled event loop exception",1454529330951
error,log,,,"Unhandled event loop exception",1454529330983
executed,command,org.eclipse.ui,3.6.0.I20100603-1100,"org.eclipse.ui.edit.paste",1454529331761
error,log,,,"Unhandled event loop exception",1454529331921
error,log,,,"Unhandled event loop exception",1454529331938
error,log,,,"Exception occurred during problem detection:\n----------------------------------- SOURCE BEGIN -------------------------------------\n<html>\n\t<head>\n\t\t<script type=""text/javascript"" src=""d3/d3.min.js""></script>\n\t\t<script src=""//code.jquery.com/jquery-1.10.2.js""></script>\n\t\t<script src=""//code.jquery.com/ui/1.11.2/jquery-ui.js""></script>\n\t</head>\n\t\n\t<body>\n\t\t<div class = ""top-select-variables"">\n\t\t\t\n\t\t</div>\n\t\t\n\t\t<svg id = canvas></svg>\n\t\n\t</body>\n\n</html>\n----------------------------------- SOURCE END -------------------------------------",1454529332727
error,log,,,"Error in JSDT Core during reconcile",1454529332728
error,log,,,"Problems occurred when invoking code from plug-in: ""org.eclipse.wst.jsdt.ui"".",1454529332729
error,log,,,"Error in JSDT Core during AST creation",1454529332729
deactivated,workbench,org.eclipse.ui.workbench,3.6.0.I20100603-1100,"",1454529332804
activated,workbench,org.eclipse.ui.workbench,3.6.0.I20100603-1100,"",1454529342619
error,log,,,"Exception occurred during problem detection:\n----------------------------------- SOURCE BEGIN -------------------------------------\n<html>\n\t<head>\n\t\t<script type=""text/javascript"" src=""d3/d3.min.js""></script>\n\t\t<script src=""//code.jquery.com/jquery-1.10.2.js""></script>\n\t\t<script src=""//code.jquery.com/ui/1.11.2/jquery-ui.js""></script>\n\t</head>\n\t\n\t<body>\n\t\t<div class = ""top-select-variables"">\n\t\t\t\n\t\t</div>\n\t\t\n\t\t<svg id = canvas></svg>\n\t\n\t</body>\n\n</html>\n----------------------------------- SOURCE END -------------------------------------",1454529350267
error,log,,,"Error in JSDT Core during reconcile",1454529350267
error,log,,,"Problems occurred when invoking code from plug-in: ""org.eclipse.wst.jsdt.ui"".",1454529350411
error,log,,,"Error in JSDT Core during AST creation",1454529350412
error,log,,,"Exception occurred during problem detection:\n----------------------------------- SOURCE BEGIN -------------------------------------\n<html>\n\t<head>\n\t\t<script type=""text/javascript"" src=""d3/d3.min.js""></script>\n\t\t<script src=""//code.jquery.com/jquery-1.10.2.js""></script>\n\t\t<script src=""//code.jquery.com/ui/1.11.2/jquery-ui.js""></script>\n\t</head>\n\t\n\t<body>\n\t\t<div class = ""top-select-variables"">\n\t\t\t\n\t\t</div>\n\t\t\n\t\t<svg id = canvas></svg>\n\t\n\t</body>\n\n</html>\n----------------------------------- SOURCE END -------------------------------------",1454529352775
error,log,,,"Error in JSDT Core during reconcile",1454529352776
error,log,,,"Problems occurred when invoking code from plug-in: ""org.eclipse.wst.jsdt.ui"".",1454529352777
error,log,,,"Error in JSDT Core during AST creation",1454529352777
error,log,,,"Problems occurred when invoking code from plug-in: ""org.eclipse.wst.jsdt.ui"".",1454529354835
error,log,,,"Error in JSDT Core during AST creation",1454529354835
error,log,,,"Problems occurred when invoking code from plug-in: ""org.eclipse.wst.jsdt.ui"".",1454529356539
error,log,,,"Error in JSDT Core during AST creation",1454529356540
error,log,,,"Unhandled event loop exception",1454529356631
error,log,,,"Unhandled event loop exception",1454529356648
error,log,,,"Unhandled event loop exception",1454529356665
error,log,,,"Unhandled event loop exception",1454529356682
error,log,,,"Unhandled event loop exception",1454529356699
error,log,,,"Unhandled event loop exception",1454529356716
error,log,,,"Unhandled event loop exception",1454529356734
error,log,,,"Unhandled event loop exception",1454529356752
executed,command,org.eclipse.ui,3.6.0.I20100603-1100,"org.eclipse.ui.edit.copy",1454529356759
error,log,,,"Unhandled event loop exception",1454529356769
error,log,,,"Unhandled event loop exception",1454529356786
error,log,,,"Unhandled event loop exception",1454529356803
error,log,,,"Unhandled event loop exception",1454529356820
error,log,,,"Unhandled event loop exception",1454529356837
error,log,,,"Unhandled event loop exception",1454529356854
error,log,,,"Unhandled event loop exception",1454529356872
executed,command,org.eclipse.ui,3.6.0.I20100603-1100,"org.eclipse.ui.edit.paste",1454529357925
error,log,,,"Exception occurred during problem detection:\n----------------------------------- SOURCE BEGIN -------------------------------------\n<html>\n\t<head>\n\t\t<script type=""text/javascript"" src=""d3/d3.min.js""></script>\n\t\t<script src=""//code.jquery.com/jquery-1.10.2.js""></script>\n\t\t<script src=""//code.jquery.com/ui/1.11.2/jquery-ui.js""></script>\n\t</head>\n\t\n\t<body>\n\t\t<div class = ""top-select-variables"">\n\t\t\t\n\t\t</div>\n\t\t\n\t\t<svg id = canvas></svg>\n\t\n\t</body>\n\n</html>\n----------------------------------- SOURCE END -------------------------------------",1454529358789
error,log,,,"Error in JSDT Core during reconcile",1454529358789
error,log,,,"Problems occurred when invoking code from plug-in: ""org.eclipse.wst.jsdt.ui"".",1454529358790
error,log,,,"Error in JSDT Core during AST creation",1454529358790
error,log,,,"Exception occurred during problem detection:\n----------------------------------- SOURCE BEGIN -------------------------------------\n<html>\n\t<head>\n\t\t<script type=""text/javascript"" src=""d3/d3.min.js""></script>\n\t\t<script src=""//code.jquery.com/jquery-1.10.2.js""></script>\n\t\t<script src=""//code.jquery.com/ui/1.11.2/jquery-ui.js""></script>\n\t</head>\n\t\n\t<body>\n\t\t<div class = ""top-select-variables"">\n\t\t\t\n\t\t</div>\n\t\t\n\t\t<svg id = canvas></svg>\n\t\n\t</body>\n\n</html>\n----------------------------------- SOURCE END -------------------------------------",1454529360795
error,log,,,"Error in JSDT Core during reconcile",1454529360796
error,log,,,"Problems occurred when invoking code from plug-in: ""org.eclipse.wst.jsdt.ui"".",1454529360796
error,log,,,"Error in JSDT Core during AST creation",1454529360796
executed,command,org.eclipse.ui,3.6.0.I20100603-1100,"org.eclipse.ui.file.save",1454529361767
error,log,,,"Unhandled event loop exception",1454529361988
error,log,,,"Unhandled event loop exception",1454529362005
error,log,,,"Unhandled event loop exception",1454529362022
error,log,,,"Unhandled event loop exception",1454529362040
deactivated,workbench,org.eclipse.ui.workbench,3.6.0.I20100603-1100,"",1454529363579
activated,workbench,org.eclipse.ui.workbench,3.6.0.I20100603-1100,"",1454529376611
error,log,,,"Problems occurred when invoking code from plug-in: ""org.eclipse.wst.jsdt.ui"".",1454529379994
error,log,,,"Error in JSDT Core during AST creation",1454529379994
error,log,,,"Unhandled event loop exception",1454529382405
error,log,,,"Unhandled event loop exception",1454529382422
error,log,,,"Unhandled event loop exception",1454529382438
error,log,,,"Unhandled event loop exception",1454529382456
error,log,,,"Unhandled event loop exception",1454529382473
error,log,,,"Unhandled event loop exception",1454529382490
error,log,,,"Unhandled event loop exception",1454529382507
error,log,,,"Unhandled event loop exception",1454529382525
executed,command,org.eclipse.ui,3.6.0.I20100603-1100,"org.eclipse.ui.file.save",1454529382598
error,log,,,"Unhandled event loop exception",1454529382749
error,log,,,"Unhandled event loop exception",1454529382765
error,log,,,"Unhandled event loop exception",1454529382782
error,log,,,"Unhandled event loop exception",1454529382799
error,log,,,"Exception occurred during problem detection:\n----------------------------------- SOURCE BEGIN -------------------------------------\n<html>\n\t<head>\n\t\t<script type=""text/javascript"" src=""d3/d3.min.js""></script>\n\t\t<script src=""//code.jquery.com/jquery-1.10.2.js""></script>\n\t\t<script src=""//code.jquery.com/ui/1.11.2/jquery-ui.js""></script>\n\t</head>\n\t\n\t<body>\n\t\t<div class = ""top-select-variables"">\n\t\t\t\n\t\t</div>\n\t\t\n\t\t<svg id = canvas></svg>\n\t\n\t</body>\n\n</html>\n----------------------------------- SOURCE END -------------------------------------",1454529382861
error,log,,,"Error in JSDT Core during reconcile",1454529382862
error,log,,,"Problems occurred when invoking code from plug-in: ""org.eclipse.wst.jsdt.ui"".",1454529382863
error,log,,,"Error in JSDT Core during AST creation",1454529382863
deactivated,workbench,org.eclipse.ui.workbench,3.6.0.I20100603-1100,"",1454529383238
activated,workbench,org.eclipse.ui.workbench,3.6.0.I20100603-1100,"",1454529391995
deactivated,workbench,org.eclipse.ui.workbench,3.6.0.I20100603-1100,"",1454529392956
activated,workbench,org.eclipse.ui.workbench,3.6.0.I20100603-1100,"",1454529600533
error,log,,,"Unexpected runtime error while computing a text hover",1454529606110
error,log,,,"Problems occurred when invoking code from plug-in: ""org.eclipse.wst.jsdt.ui"".",1454529607051
error,log,,,"Error in JSDT Core during AST creation",1454529607051
error,log,,,"Exception occurred during problem detection:\n----------------------------------- SOURCE BEGIN -------------------------------------\n<html>\n\t<head>\n\t\t<script type=""text/javascript"" src=""d3/d3.min.js""></script>\n\t\t<script src=""//code.jquery.com/jquery-1.10.2.js""></script>\n\t\t<script src=""//code.jquery.com/ui/1.11.2/jquery-ui.js""></script>\n\t</head>\n\t\n\t<body>\n\t\t<div class = ""top-select-variables"">\n\t\t\t\n\t\t</div>\n\t\t\n\t\t<svg id = canvas></svg>\n\t\n\t</body>\n\n</html>\n----------------------------------- SOURCE END -------------------------------------",1454529609692
error,log,,,"Error in JSDT Core during reconcile",1454529609693
error,log,,,"Problems occurred when invoking code from plug-in: ""org.eclipse.wst.jsdt.ui"".",1454529609694
error,log,,,"Error in JSDT Core during AST creation",1454529609695
error,log,,,"Exception occurred during problem detection:\n----------------------------------- SOURCE BEGIN -------------------------------------\n<html>\n\t<head>\n\t\t<script type=""text/javascript"" src=""d3/d3.min.js""></script>\n\t\t<script src=""//code.jquery.com/jquery-1.10.2.js""></script>\n\t\t<script src=""//code.jquery.com/ui/1.11.2/jquery-ui.js""></script>\n\t</head>\n\t\n\t<body>\n\t\t<div class = ""top-select-variables"">\n\t\t\t\n\t\t</div>\n\t\t\n\t\t<svg id = canvas></svg>\n\t\n\t</body>\n\n</html>\n----------------------------------- SOURCE END -------------------------------------",1454529611218
error,log,,,"Error in JSDT Core during reconcile",1454529611219
error,log,,,"Exception occurred during problem detection:\n----------------------------------- SOURCE BEGIN -------------------------------------\n<html>\n\t<head>\n\t\t<script type=""text/javascript"" src=""d3/d3.min.js""></script>\n\t\t<script src=""//code.jquery.com/jquery-1.10.2.js""></script>\n\t\t<script src=""//code.jquery.com/ui/1.11.2/jquery-ui.js""></script>\n\t</head>\n\t\n\t<body>\n\t\t<div class = ""top-select-variables"">\n\t\t\t\n\t\t</div>\n\t\t\n\t\t<svg id = canvas></svg>\n\t\n\t</body>\n\n</html>\n----------------------------------- SOURCE END -------------------------------------",1454529613225
error,log,,,"Error in JSDT Core during reconcile",1454529613225
error,log,,,"Problems occurred when invoking code from plug-in: ""org.eclipse.wst.jsdt.ui"".",1454529613228
error,log,,,"Error in JSDT Core during AST creation",1454529613229
error,log,,,"Problems occurred when invoking code from plug-in: ""org.eclipse.wst.jsdt.ui"".",1454529615001
error,log,,,"Error in JSDT Core during AST creation",1454529615001
executed,command,org.eclipse.ui,3.6.0.I20100603-1100,"org.eclipse.ui.edit.copy",1454529615191
executed,command,org.eclipse.ui,3.6.0.I20100603-1100,"org.eclipse.ui.edit.paste",1454529616345
error,log,,,"Exception occurred during problem detection:\n----------------------------------- SOURCE BEGIN -------------------------------------\n<html>\n\t<head>\n\t\t<script type=""text/javascript"" src=""d3/d3.min.js""></script>\n\t\t<script src=""//code.jquery.com/jquery-1.10.2.js""></script>\n\t\t<script src=""//code.jquery.com/ui/1.11.2/jquery-ui.js""></script>\n\t</head>\n\t\n\t<body>\n\t\t<div class = ""top-select-variables"">\n\t\t\t\n\t\t</div>\n\t\t\n\t\t<svg id = canvas></svg>\n\t\n\t</body>\n\n</html>\n----------------------------------- SOURCE END -------------------------------------",1454529617239
error,log,,,"Error in JSDT Core during reconcile",1454529617240
error,log,,,"Problems occurred when invoking code from plug-in: ""org.eclipse.wst.jsdt.ui"".",1454529617243
error,log,,,"Error in JSDT Core during AST creation",1454529617244
error,log,,,"Problems occurred when invoking code from plug-in: ""org.eclipse.wst.jsdt.ui"".",1454529618234
error,log,,,"Error in JSDT Core during AST creation",1454529618234
error,log,,,"Unexpected runtime error while computing a text hover",1454529618256
error,log,,,"Unhandled event loop exception",1454529619006
error,log,,,"Unhandled event loop exception",1454529619022
error,log,,,"Unhandled event loop exception",1454529619057
