what,kind,bundleId,bundleVersion,description,time
error,log,,,"Unhandled event loop exception",1454546304873
error,log,,,"Unhandled event loop exception",1454546304890
error,log,,,"Unhandled event loop exception",1454546304908
error,log,,,"Unhandled event loop exception",1454546304925
executed,command,org.eclipse.ui,3.6.0.I20100603-1100,"org.eclipse.ui.edit.copy",1454546304959
error,log,,,"Problems occurred when invoking code from plug-in: ""org.eclipse.wst.jsdt.ui"".",1454546305124
error,log,,,"Error in JSDT Core during AST creation",1454546305125
executed,command,org.eclipse.ui,3.6.0.I20100603-1100,"org.eclipse.ui.edit.paste",1454546305955
error,log,,,"Exception occurred during problem detection:\n----------------------------------- SOURCE BEGIN -------------------------------------\n<html>\n\t<head>\n\t\t<script type=""text/javascript"" src=""d3/d3.min.js""></script>\n\t\t<script src=""//code.jquery.com/jquery-1.10.2.js""></script>\n\t\t<script src=""//code.jquery.com/ui/1.11.2/jquery-ui.js""></script>\n\t</head>\n\t\n\t<body>\n\t\t<div class = ""top-select-variables"">\n\t\t\t\n\t\t</div>\n\t\t\n\t\t<svg id = canvas></svg>\n\t\n\t</body>\n\n</html>\n----------------------------------- SOURCE END -------------------------------------",1454546306599
error,log,,,"Error in JSDT Core during reconcile",1454546306600
error,log,,,"Problems occurred when invoking code from plug-in: ""org.eclipse.wst.jsdt.ui"".",1454546306753
error,log,,,"Error in JSDT Core during AST creation",1454546306753
error,log,,,"Problems occurred when invoking code from plug-in: ""org.eclipse.wst.jsdt.ui"".",1454546315655
error,log,,,"Error in JSDT Core during AST creation",1454546315656
executed,command,org.eclipse.ui,3.6.0.I20100603-1100,"org.eclipse.ui.edit.paste",1454546316079
error,log,,,"Exception occurred during problem detection:\n----------------------------------- SOURCE BEGIN -------------------------------------\n<html>\n\t<head>\n\t\t<script type=""text/javascript"" src=""d3/d3.min.js""></script>\n\t\t<script src=""//code.jquery.com/jquery-1.10.2.js""></script>\n\t\t<script src=""//code.jquery.com/ui/1.11.2/jquery-ui.js""></script>\n\t</head>\n\t\n\t<body>\n\t\t<div class = ""top-select-variables"">\n\t\t\t\n\t\t</div>\n\t\t\n\t\t<svg id = canvas></svg>\n\t\n\t</body>\n\n</html>\n----------------------------------- SOURCE END -------------------------------------",1454546316616
error,log,,,"Error in JSDT Core during reconcile",1454546316616
error,log,,,"Problems occurred when invoking code from plug-in: ""org.eclipse.wst.jsdt.ui"".",1454546316879
error,log,,,"Error in JSDT Core during AST creation",1454546316880
executed,command,org.eclipse.ui,3.6.0.I20100603-1100,"org.eclipse.ui.edit.undo",1454546316935
error,log,,,"Exception occurred during problem detection:\n----------------------------------- SOURCE BEGIN -------------------------------------\n<html>\n\t<head>\n\t\t<script type=""text/javascript"" src=""d3/d3.min.js""></script>\n\t\t<script src=""//code.jquery.com/jquery-1.10.2.js""></script>\n\t\t<script src=""//code.jquery.com/ui/1.11.2/jquery-ui.js""></script>\n\t</head>\n\t\n\t<body>\n\t\t<div class = ""top-select-variables"">\n\t\t\t\n\t\t</div>\n\t\t\n\t\t<svg id = canvas></svg>\n\t\n\t</body>\n\n</html>\n----------------------------------- SOURCE END -------------------------------------",1454546317622
error,log,,,"Error in JSDT Core during reconcile",1454546317623
error,log,,,"Problems occurred when invoking code from plug-in: ""org.eclipse.wst.jsdt.ui"".",1454546317624
error,log,,,"Error in JSDT Core during AST creation",1454546317624
error,log,,,"Exception occurred during problem detection:\n----------------------------------- SOURCE BEGIN -------------------------------------\n<html>\n\t<head>\n\t\t<script type=""text/javascript"" src=""d3/d3.min.js""></script>\n\t\t<script src=""//code.jquery.com/jquery-1.10.2.js""></script>\n\t\t<script src=""//code.jquery.com/ui/1.11.2/jquery-ui.js""></script>\n\t</head>\n\t\n\t<body>\n\t\t<div class = ""top-select-variables"">\n\t\t\t\n\t\t</div>\n\t\t\n\t\t<svg id = canvas></svg>\n\t\n\t</body>\n\n</html>\n----------------------------------- SOURCE END -------------------------------------",1454546320130
error,log,,,"Error in JSDT Core during reconcile",1454546320131
error,log,,,"Problems occurred when invoking code from plug-in: ""org.eclipse.wst.jsdt.ui"".",1454546320253
error,log,,,"Error in JSDT Core during AST creation",1454546320254
executed,command,org.eclipse.ui,3.6.0.I20100603-1100,"org.eclipse.ui.edit.paste",1454546322231
error,log,,,"Exception occurred during problem detection:\n----------------------------------- SOURCE BEGIN -------------------------------------\n<html>\n\t<head>\n\t\t<script type=""text/javascript"" src=""d3/d3.min.js""></script>\n\t\t<script src=""//code.jquery.com/jquery-1.10.2.js""></script>\n\t\t<script src=""//code.jquery.com/ui/1.11.2/jquery-ui.js""></script>\n\t</head>\n\t\n\t<body>\n\t\t<div class = ""top-select-variables"">\n\t\t\t\n\t\t</div>\n\t\t\n\t\t<svg id = canvas></svg>\n\t\n\t</body>\n\n</html>\n----------------------------------- SOURCE END -------------------------------------",1454546323140
error,log,,,"Error in JSDT Core during reconcile",1454546323141
error,log,,,"Exception occurred during problem detection:\n----------------------------------- SOURCE BEGIN -------------------------------------\n<html>\n\t<head>\n\t\t<script type=""text/javascript"" src=""d3/d3.min.js""></script>\n\t\t<script src=""//code.jquery.com/jquery-1.10.2.js""></script>\n\t\t<script src=""//code.jquery.com/ui/1.11.2/jquery-ui.js""></script>\n\t</head>\n\t\n\t<body>\n\t\t<div class = ""top-select-variables"">\n\t\t\t\n\t\t</div>\n\t\t\n\t\t<svg id = canvas></svg>\n\t\n\t</body>\n\n</html>\n----------------------------------- SOURCE END -------------------------------------",1454546324146
error,log,,,"Error in JSDT Core during reconcile",1454546324146
error,log,,,"Problems occurred when invoking code from plug-in: ""org.eclipse.wst.jsdt.ui"".",1454546324147
error,log,,,"Error in JSDT Core during AST creation",1454546324147
executed,command,org.eclipse.ui,3.6.0.I20100603-1100,"org.eclipse.ui.edit.copy",1454546325518
error,log,,,"Unhandled event loop exception",1454546325587
error,log,,,"Unhandled event loop exception",1454546325604
error,log,,,"Unhandled event loop exception",1454546325621
error,log,,,"Unhandled event loop exception",1454546325638
error,log,,,"Problems occurred when invoking code from plug-in: ""org.eclipse.wst.jsdt.ui"".",1454546325794
error,log,,,"Error in JSDT Core during AST creation",1454546325795
error,log,,,"Problems occurred when invoking code from plug-in: ""org.eclipse.wst.jsdt.ui"".",1454546326856
error,log,,,"Error in JSDT Core during AST creation",1454546326856
error,log,,,"Problems occurred when invoking code from plug-in: ""org.eclipse.wst.jsdt.ui"".",1454546327823
error,log,,,"Error in JSDT Core during AST creation",1454546327823
executed,command,org.eclipse.ui,3.6.0.I20100603-1100,"org.eclipse.ui.edit.paste",1454546328634
error,log,,,"Exception occurred during problem detection:\n----------------------------------- SOURCE BEGIN -------------------------------------\n<html>\n\t<head>\n\t\t<script type=""text/javascript"" src=""d3/d3.min.js""></script>\n\t\t<script src=""//code.jquery.com/jquery-1.10.2.js""></script>\n\t\t<script src=""//code.jquery.com/ui/1.11.2/jquery-ui.js""></script>\n\t</head>\n\t\n\t<body>\n\t\t<div class = ""top-select-variables"">\n\t\t\t\n\t\t</div>\n\t\t\n\t\t<svg id = canvas></svg>\n\t\n\t</body>\n\n</html>\n----------------------------------- SOURCE END -------------------------------------",1454546329159
error,log,,,"Error in JSDT Core during reconcile",1454546329159
error,log,,,"Unhandled event loop exception",1454546329439
error,log,,,"Unhandled event loop exception",1454546329457
error,log,,,"Unhandled event loop exception",1454546329474
error,log,,,"Problems occurred when invoking code from plug-in: ""org.eclipse.wst.jsdt.ui"".",1454546329481
error,log,,,"Error in JSDT Core during AST creation",1454546329481
error,log,,,"Unhandled event loop exception",1454546329491
error,log,,,"Unhandled event loop exception",1454546329509
executed,command,org.eclipse.ui,3.6.0.I20100603-1100,"org.eclipse.ui.file.save",1454546329525
error,log,,,"Unhandled event loop exception",1454546329564
error,log,,,"Unhandled event loop exception",1454546329565
error,log,,,"Unhandled event loop exception",1454546329578
error,log,,,"Unhandled event loop exception",1454546329595
error,log,,,"Unhandled event loop exception",1454546329612
error,log,,,"Unhandled event loop exception",1454546329629
error,log,,,"Unhandled event loop exception",1454546329646
deactivated,workbench,org.eclipse.ui.workbench,3.6.0.I20100603-1100,"",1454546330401
activated,workbench,org.eclipse.ui.workbench,3.6.0.I20100603-1100,"",1454546331121
deactivated,workbench,org.eclipse.ui.workbench,3.6.0.I20100603-1100,"",1454546336348
activated,workbench,org.eclipse.ui.workbench,3.6.0.I20100603-1100,"",1454546355668
error,log,,,"Unexpected runtime error while computing a text hover",1454546356899
deactivated,workbench,org.eclipse.ui.workbench,3.6.0.I20100603-1100,"",1454546365785
activated,workbench,org.eclipse.ui.workbench,3.6.0.I20100603-1100,"",1454546390787
error,log,,,"Unexpected runtime error while computing a text hover",1454546393801
error,log,,,"Problems occurred when invoking code from plug-in: ""org.eclipse.wst.jsdt.ui"".",1454546393804
error,log,,,"Error in JSDT Core during AST creation",1454546393804
error,log,,,"Exception occurred during problem detection:\n----------------------------------- SOURCE BEGIN -------------------------------------\n<html>\n\t<head>\n\t\t<script type=""text/javascript"" src=""d3/d3.min.js""></script>\n\t\t<script src=""//code.jquery.com/jquery-1.10.2.js""></script>\n\t\t<script src=""//code.jquery.com/ui/1.11.2/jquery-ui.js""></script>\n\t</head>\n\t\n\t<body>\n\t\t<div class = ""top-select-variables"">\n\t\t\t\n\t\t</div>\n\t\t\n\t\t<svg id = canvas></svg>\n\t\n\t</body>\n\n</html>\n----------------------------------- SOURCE END -------------------------------------",1454546395290
error,log,,,"Error in JSDT Core during reconcile",1454546395291
error,log,,,"Problems occurred when invoking code from plug-in: ""org.eclipse.wst.jsdt.ui"".",1454546395378
error,log,,,"Error in JSDT Core during AST creation",1454546395378
error,log,,,"Exception occurred during problem detection:\n----------------------------------- SOURCE BEGIN -------------------------------------\n<html>\n\t<head>\n\t\t<script type=""text/javascript"" src=""d3/d3.min.js""></script>\n\t\t<script src=""//code.jquery.com/jquery-1.10.2.js""></script>\n\t\t<script src=""//code.jquery.com/ui/1.11.2/jquery-ui.js""></script>\n\t</head>\n\t\n\t<body>\n\t\t<div class = ""top-select-variables"">\n\t\t\t\n\t\t</div>\n\t\t\n\t\t<svg id = canvas></svg>\n\t\n\t</body>\n\n</html>\n----------------------------------- SOURCE END -------------------------------------",1454546397302
error,log,,,"Error in JSDT Core during reconcile",1454546397303
error,log,,,"Problems occurred when invoking code from plug-in: ""org.eclipse.wst.jsdt.ui"".",1454546397304
error,log,,,"Error in JSDT Core during AST creation",1454546397304
error,log,,,"Unexpected runtime error while computing a text hover",1454546397949
error,log,,,"Exception occurred during problem detection:\n----------------------------------- SOURCE BEGIN -------------------------------------\n<html>\n\t<head>\n\t\t<script type=""text/javascript"" src=""d3/d3.min.js""></script>\n\t\t<script src=""//code.jquery.com/jquery-1.10.2.js""></script>\n\t\t<script src=""//code.jquery.com/ui/1.11.2/jquery-ui.js""></script>\n\t</head>\n\t\n\t<body>\n\t\t<div class = ""top-select-variables"">\n\t\t\t\n\t\t</div>\n\t\t\n\t\t<svg id = canvas></svg>\n\t\n\t</body>\n\n</html>\n----------------------------------- SOURCE END -------------------------------------",1454546405320
error,log,,,"Error in JSDT Core during reconcile",1454546405321
error,log,,,"Problems occurred when invoking code from plug-in: ""org.eclipse.wst.jsdt.ui"".",1454546405321
error,log,,,"Error in JSDT Core during AST creation",1454546405321
error,log,,,"Exception occurred during problem detection:\n----------------------------------- SOURCE BEGIN -------------------------------------\n<html>\n\t<head>\n\t\t<script type=""text/javascript"" src=""d3/d3.min.js""></script>\n\t\t<script src=""//code.jquery.com/jquery-1.10.2.js""></script>\n\t\t<script src=""//code.jquery.com/ui/1.11.2/jquery-ui.js""></script>\n\t</head>\n\t\n\t<body>\n\t\t<div class = ""top-select-variables"">\n\t\t\t\n\t\t</div>\n\t\t\n\t\t<svg id = canvas></svg>\n\t\n\t</body>\n\n</html>\n----------------------------------- SOURCE END -------------------------------------",1454546406331
error,log,,,"Error in JSDT Core during reconcile",1454546406332
error,log,,,"Unhandled event loop exception",1454546408333
error,log,,,"Unhandled event loop exception",1454546408349
error,log,,,"Unhandled event loop exception",1454546408366
error,log,,,"Unhandled event loop exception",1454546408383
error,log,,,"Unhandled event loop exception",1454546408401
error,log,,,"Unhandled event loop exception",1454546408418
executed,command,org.eclipse.ui,3.6.0.I20100603-1100,"org.eclipse.ui.file.save",1454546408586
error,log,,,"Unhandled event loop exception",1454546408623
error,log,,,"Unhandled event loop exception",1454546408629
error,log,,,"Exception occurred during problem detection:\n----------------------------------- SOURCE BEGIN -------------------------------------\n<html>\n\t<head>\n\t\t<script type=""text/javascript"" src=""d3/d3.min.js""></script>\n\t\t<script src=""//code.jquery.com/jquery-1.10.2.js""></script>\n\t\t<script src=""//code.jquery.com/ui/1.11.2/jquery-ui.js""></script>\n\t</head>\n\t\n\t<body>\n\t\t<div class = ""top-select-variables"">\n\t\t\t\n\t\t</div>\n\t\t\n\t\t<svg id = canvas></svg>\n\t\n\t</body>\n\n</html>\n----------------------------------- SOURCE END -------------------------------------",1454546408841
error,log,,,"Error in JSDT Core during reconcile",1454546408841
error,log,,,"Problems occurred when invoking code from plug-in: ""org.eclipse.wst.jsdt.ui"".",1454546408843
error,log,,,"Error in JSDT Core during AST creation",1454546408843
deactivated,workbench,org.eclipse.ui.workbench,3.6.0.I20100603-1100,"",1454546409322
activated,workbench,org.eclipse.ui.workbench,3.6.0.I20100603-1100,"",1454546458482
error,log,,,"Problems occurred when invoking code from plug-in: ""org.eclipse.wst.jsdt.ui"".",1454546465045
error,log,,,"Error in JSDT Core during AST creation",1454546465045
error,log,,,"Unexpected runtime error while computing a text hover",1454546466317
error,log,,,"Problems occurred when invoking code from plug-in: ""org.eclipse.wst.jsdt.ui"".",1454546486978
error,log,,,"Error in JSDT Core during AST creation",1454546486979
error,log,,,"Exception occurred during problem detection:\n----------------------------------- SOURCE BEGIN -------------------------------------\n<html>\n\t<head>\n\t\t<script type=""text/javascript"" src=""d3/d3.min.js""></script>\n\t\t<script src=""//code.jquery.com/jquery-1.10.2.js""></script>\n\t\t<script src=""//code.jquery.com/ui/1.11.2/jquery-ui.js""></script>\n\t</head>\n\t\n\t<body>\n\t\t<div class = ""top-select-variables"">\n\t\t\t\n\t\t</div>\n\t\t\n\t\t<svg id = canvas></svg>\n\t\n\t</body>\n\n</html>\n----------------------------------- SOURCE END -------------------------------------",1454546489063
error,log,,,"Error in JSDT Core during reconcile",1454546489064
error,log,,,"Problems occurred when invoking code from plug-in: ""org.eclipse.wst.jsdt.ui"".",1454546489065
error,log,,,"Error in JSDT Core during AST creation",1454546489065
error,log,,,"Exception occurred during problem detection:\n----------------------------------- SOURCE BEGIN -------------------------------------\n<html>\n\t<head>\n\t\t<script type=""text/javascript"" src=""d3/d3.min.js""></script>\n\t\t<script src=""//code.jquery.com/jquery-1.10.2.js""></script>\n\t\t<script src=""//code.jquery.com/ui/1.11.2/jquery-ui.js""></script>\n\t</head>\n\t\n\t<body>\n\t\t<div class = ""top-select-variables"">\n\t\t\t\n\t\t</div>\n\t\t\n\t\t<svg id = canvas></svg>\n\t\n\t</body>\n\n</html>\n----------------------------------- SOURCE END -------------------------------------",1454546490576
error,log,,,"Error in JSDT Core during reconcile",1454546490577
error,log,,,"Problems occurred when invoking code from plug-in: ""org.eclipse.wst.jsdt.ui"".",1454546490604
error,log,,,"Error in JSDT Core during AST creation",1454546490604
error,log,,,"Unexpected runtime error while computing a text hover",1454546492389
error,log,,,"Exception occurred during problem detection:\n----------------------------------- SOURCE BEGIN -------------------------------------\n<html>\n\t<head>\n\t\t<script type=""text/javascript"" src=""d3/d3.min.js""></script>\n\t\t<script src=""//code.jquery.com/jquery-1.10.2.js""></script>\n\t\t<script src=""//code.jquery.com/ui/1.11.2/jquery-ui.js""></script>\n\t</head>\n\t\n\t<body>\n\t\t<div class = ""top-select-variables"">\n\t\t\t\n\t\t</div>\n\t\t\n\t\t<svg id = canvas></svg>\n\t\n\t</body>\n\n</html>\n----------------------------------- SOURCE END -------------------------------------",1454546494592
error,log,,,"Error in JSDT Core during reconcile",1454546494593
error,log,,,"Problems occurred when invoking code from plug-in: ""org.eclipse.wst.jsdt.ui"".",1454546494617
error,log,,,"Error in JSDT Core during AST creation",1454546494617
error,log,,,"Exception occurred during problem detection:\n----------------------------------- SOURCE BEGIN -------------------------------------\n<html>\n\t<head>\n\t\t<script type=""text/javascript"" src=""d3/d3.min.js""></script>\n\t\t<script src=""//code.jquery.com/jquery-1.10.2.js""></script>\n\t\t<script src=""//code.jquery.com/ui/1.11.2/jquery-ui.js""></script>\n\t</head>\n\t\n\t<body>\n\t\t<div class = ""top-select-variables"">\n\t\t\t\n\t\t</div>\n\t\t\n\t\t<svg id = canvas></svg>\n\t\n\t</body>\n\n</html>\n----------------------------------- SOURCE END -------------------------------------",1454546497606
error,log,,,"Error in JSDT Core during reconcile",1454546497606
error,log,,,"Problems occurred when invoking code from plug-in: ""org.eclipse.wst.jsdt.ui"".",1454546497646
error,log,,,"Error in JSDT Core during AST creation",1454546497646
error,log,,,"Exception occurred during problem detection:\n----------------------------------- SOURCE BEGIN -------------------------------------\n<html>\n\t<head>\n\t\t<script type=""text/javascript"" src=""d3/d3.min.js""></script>\n\t\t<script src=""//code.jquery.com/jquery-1.10.2.js""></script>\n\t\t<script src=""//code.jquery.com/ui/1.11.2/jquery-ui.js""></script>\n\t</head>\n\t\n\t<body>\n\t\t<div class = ""top-select-variables"">\n\t\t\t\n\t\t</div>\n\t\t\n\t\t<svg id = canvas></svg>\n\t\n\t</body>\n\n</html>\n----------------------------------- SOURCE END -------------------------------------",1454546500616
error,log,,,"Error in JSDT Core during reconcile",1454546500617
error,log,,,"Problems occurred when invoking code from plug-in: ""org.eclipse.wst.jsdt.ui"".",1454546500650
error,log,,,"Error in JSDT Core during AST creation",1454546500650
error,log,,,"Unexpected runtime error while computing a text hover",1454546503255
error,log,,,"Problems occurred when invoking code from plug-in: ""org.eclipse.wst.jsdt.ui"".",1454546511816
error,log,,,"Error in JSDT Core during AST creation",1454546511817
error,log,,,"Exception occurred during problem detection:\n----------------------------------- SOURCE BEGIN -------------------------------------\n<html>\n\t<head>\n\t\t<script type=""text/javascript"" src=""d3/d3.min.js""></script>\n\t\t<script src=""//code.jquery.com/jquery-1.10.2.js""></script>\n\t\t<script src=""//code.jquery.com/ui/1.11.2/jquery-ui.js""></script>\n\t</head>\n\t\n\t<body>\n\t\t<div class = ""top-select-variables"">\n\t\t\t\n\t\t</div>\n\t\t\n\t\t<svg id = canvas></svg>\n\t\n\t</body>\n\n</html>\n----------------------------------- SOURCE END -------------------------------------",1454546513148
error,log,,,"Error in JSDT Core during reconcile",1454546513149
error,log,,,"Problems occurred when invoking code from plug-in: ""org.eclipse.wst.jsdt.ui"".",1454546513149
error,log,,,"Error in JSDT Core during AST creation",1454546513150
error,log,,,"Exception occurred during problem detection:\n----------------------------------- SOURCE BEGIN -------------------------------------\n<html>\n\t<head>\n\t\t<script type=""text/javascript"" src=""d3/d3.min.js""></script>\n\t\t<script src=""//code.jquery.com/jquery-1.10.2.js""></script>\n\t\t<script src=""//code.jquery.com/ui/1.11.2/jquery-ui.js""></script>\n\t</head>\n\t\n\t<body>\n\t\t<div class = ""top-select-variables"">\n\t\t\t\n\t\t</div>\n\t\t\n\t\t<svg id = canvas></svg>\n\t\n\t</body>\n\n</html>\n----------------------------------- SOURCE END -------------------------------------",1454546516658
error,log,,,"Error in JSDT Core during reconcile",1454546516659
error,log,,,"Problems occurred when invoking code from plug-in: ""org.eclipse.wst.jsdt.ui"".",1454546516806
error,log,,,"Error in JSDT Core during AST creation",1454546516806
error,log,,,"Exception occurred during problem detection:\n----------------------------------- SOURCE BEGIN -------------------------------------\n<html>\n\t<head>\n\t\t<script type=""text/javascript"" src=""d3/d3.min.js""></script>\n\t\t<script src=""//code.jquery.com/jquery-1.10.2.js""></script>\n\t\t<script src=""//code.jquery.com/ui/1.11.2/jquery-ui.js""></script>\n\t</head>\n\t\n\t<body>\n\t\t<div class = ""top-select-variables"">\n\t\t\t\n\t\t</div>\n\t\t\n\t\t<svg id = canvas></svg>\n\t\n\t</body>\n\n</html>\n----------------------------------- SOURCE END -------------------------------------",1454546523173
error,log,,,"Error in JSDT Core during reconcile",1454546523173
error,log,,,"Problems occurred when invoking code from plug-in: ""org.eclipse.wst.jsdt.ui"".",1454546523244
error,log,,,"Error in JSDT Core during AST creation",1454546523245
error,log,,,"Unexpected runtime error while computing a text hover",1454546524530
error,log,,,"Problems occurred when invoking code from plug-in: ""org.eclipse.wst.jsdt.ui"".",1454546524571
error,log,,,"Error in JSDT Core during AST creation",1454546524574
error,log,,,"Exception occurred during problem detection:\n----------------------------------- SOURCE BEGIN -------------------------------------\n<html>\n\t<head>\n\t\t<script type=""text/javascript"" src=""d3/d3.min.js""></script>\n\t\t<script src=""//code.jquery.com/jquery-1.10.2.js""></script>\n\t\t<script src=""//code.jquery.com/ui/1.11.2/jquery-ui.js""></script>\n\t</head>\n\t\n\t<body>\n\t\t<div class = ""top-select-variables"">\n\t\t\t\n\t\t</div>\n\t\t\n\t\t<svg id = canvas></svg>\n\t\n\t</body>\n\n</html>\n----------------------------------- SOURCE END -------------------------------------",1454546525181
error,log,,,"Error in JSDT Core during reconcile",1454546525181
error,log,,,"Problems occurred when invoking code from plug-in: ""org.eclipse.wst.jsdt.ui"".",1454546525431
error,log,,,"Error in JSDT Core during AST creation",1454546525432
error,log,,,"Exception occurred during problem detection:\n----------------------------------- SOURCE BEGIN -------------------------------------\n<html>\n\t<head>\n\t\t<script type=""text/javascript"" src=""d3/d3.min.js""></script>\n\t\t<script src=""//code.jquery.com/jquery-1.10.2.js""></script>\n\t\t<script src=""//code.jquery.com/ui/1.11.2/jquery-ui.js""></script>\n\t</head>\n\t\n\t<body>\n\t\t<div class = ""top-select-variables"">\n\t\t\t\n\t\t</div>\n\t\t\n\t\t<svg id = canvas></svg>\n\t\n\t</body>\n\n</html>\n----------------------------------- SOURCE END -------------------------------------",1454546527689
error,log,,,"Error in JSDT Core during reconcile",1454546527689
error,log,,,"Problems occurred when invoking code from plug-in: ""org.eclipse.wst.jsdt.ui"".",1454546527690
error,log,,,"Error in JSDT Core during AST creation",1454546527690
error,log,,,"Problems occurred when invoking code from plug-in: ""org.eclipse.wst.jsdt.ui"".",1454546528184
error,log,,,"Error in JSDT Core during AST creation",1454546528185
error,log,,,"Exception occurred during problem detection:\n----------------------------------- SOURCE BEGIN -------------------------------------\n<html>\n\t<head>\n\t\t<script type=""text/javascript"" src=""d3/d3.min.js""></script>\n\t\t<script src=""//code.jquery.com/jquery-1.10.2.js""></script>\n\t\t<script src=""//code.jquery.com/ui/1.11.2/jquery-ui.js""></script>\n\t</head>\n\t\n\t<body>\n\t\t<div class = ""top-select-variables"">\n\t\t\t\n\t\t</div>\n\t\t\n\t\t<svg id = canvas></svg>\n\t\n\t</body>\n\n</html>\n----------------------------------- SOURCE END -------------------------------------",1454546529697
error,log,,,"Error in JSDT Core during reconcile",1454546529697
error,log,,,"Exception occurred during problem detection:\n----------------------------------- SOURCE BEGIN -------------------------------------\n<html>\n\t<head>\n\t\t<script type=""text/javascript"" src=""d3/d3.min.js""></script>\n\t\t<script src=""//code.jquery.com/jquery-1.10.2.js""></script>\n\t\t<script src=""//code.jquery.com/ui/1.11.2/jquery-ui.js""></script>\n\t</head>\n\t\n\t<body>\n\t\t<div class = ""top-select-variables"">\n\t\t\t\n\t\t</div>\n\t\t\n\t\t<svg id = canvas></svg>\n\t\n\t</body>\n\n</html>\n----------------------------------- SOURCE END -------------------------------------",1454546533209
error,log,,,"Error in JSDT Core during reconcile",1454546533209
error,log,,,"Problems occurred when invoking code from plug-in: ""org.eclipse.wst.jsdt.ui"".",1454546533462
error,log,,,"Error in JSDT Core during AST creation",1454546533462
error,log,,,"Unhandled event loop exception",1454546535622
error,log,,,"Unhandled event loop exception",1454546535639
error,log,,,"Unhandled event loop exception",1454546535656
error,log,,,"Unhandled event loop exception",1454546535673
error,log,,,"Unhandled event loop exception",1454546535690
error,log,,,"Unhandled event loop exception",1454546535708
error,log,,,"Unhandled event loop exception",1454546535725
executed,command,org.eclipse.ui,3.6.0.I20100603-1100,"org.eclipse.ui.file.save",1454546535845
error,log,,,"Unhandled event loop exception",1454546536001
error,log,,,"Exception occurred during problem detection:\n----------------------------------- SOURCE BEGIN -------------------------------------\n<html>\n\t<head>\n\t\t<script type=""text/javascript"" src=""d3/d3.min.js""></script>\n\t\t<script src=""//code.jquery.com/jquery-1.10.2.js""></script>\n\t\t<script src=""//code.jquery.com/ui/1.11.2/jquery-ui.js""></script>\n\t</head>\n\t\n\t<body>\n\t\t<div class = ""top-select-variables"">\n\t\t\t\n\t\t</div>\n\t\t\n\t\t<svg id = canvas></svg>\n\t\n\t</body>\n\n</html>\n----------------------------------- SOURCE END -------------------------------------",1454546536218
error,log,,,"Error in JSDT Core during reconcile",1454546536219
